<?xml version="1.0" encoding="utf-8"?>
<!-- Generator: Adobe Illustrator 16.0.0, SVG Export Plug-In . SVG Version: 6.00 Build 0)  -->
<!DOCTYPE svg PUBLIC "-//W3C//DTD SVG 1.1//EN" "http://www.w3.org/Graphics/SVG/1.1/DTD/svg11.dtd">
<svg version="1.1" id="Capa_1" xmlns="http://www.w3.org/2000/svg" xmlns:xlink="http://www.w3.org/1999/xlink" x="0px" y="0px"
	 width="537.785px" height="562.514px" viewBox="0 0 537.785 562.514" enable-background="new 0 0 537.785 562.514"
	 xml:space="preserve">
<path fill="#0D84FF" d="M0.086,281.16c0-5.037-0.228-10.086,0.058-15.107c0.361-6.353,0.87-12.702,1.635-19.033
	c0.805-6.648,1.76-13.264,2.968-19.846c1.96-10.681,4.564-21.205,7.724-31.592c4.986-16.389,11.409-32.197,19.248-47.427
	c6.921-13.449,14.87-26.263,23.839-38.447c5.684-7.722,11.706-15.172,18.187-22.228c13.111-14.274,27.427-27.212,43.23-38.479
	c11.079-7.898,22.647-14.99,34.792-21.108c16.015-8.067,32.678-14.459,50.019-19.105c13.207-3.539,26.61-5.95,40.177-7.463
	c12.166-1.356,24.401-1.545,36.613-1.132c25.762,0.872,50.846,5.62,75.203,14.081c9.281,3.224,18.332,7.015,27.205,11.249
	c21.768,10.384,41.619,23.668,59.855,39.393c7.443,6.417,14.389,13.363,21.109,20.537c11.225,11.982,21.197,24.934,30.102,38.714
	c8.863,13.713,16.457,28.104,22.848,43.129c7.395,17.388,12.963,35.355,16.832,53.84c1.762,8.421,3.164,16.911,4.078,25.479
	c0.6,5.625,1.084,11.252,1.465,16.899c0.684,10.144,0.588,20.288,0.25,30.424c-0.82,24.588-5.016,48.644-12.064,72.191
	c-3.963,13.244-8.939,26.117-14.799,38.646c-8.219,17.573-18.137,34.129-29.729,49.672c-5.73,7.684-11.875,15.026-18.383,22.076
	c-4.5,4.877-9.158,9.6-13.979,14.143c-9.189,8.662-18.959,16.637-29.303,23.896c-9.951,6.986-20.293,13.318-31.092,18.927
	c-18.65,9.686-38.193,16.971-58.607,21.918c-9.303,2.256-18.725,3.848-28.211,5.143c-14.053,1.914-28.17,2.193-42.294,1.822
	c-16.45-0.432-32.696-2.725-48.737-6.435c-17.559-4.059-34.504-9.903-50.839-17.495c-18.624-8.656-35.966-19.41-52.134-32.074
	c-8.561-6.703-16.691-13.896-24.373-21.578c-12.853-12.854-24.375-26.824-34.493-41.932c-10.429-15.574-19.249-32.012-26.47-49.316
	c-7.68-18.404-13.31-37.416-17.083-56.979c-1.6-8.291-2.772-16.651-3.611-25.064c-0.505-5.072-0.927-10.152-1.182-15.232
	C-0.111,291.243,0.086,286.196,0.086,281.16z M4.444,280.647c-0.103,7.398,0.267,14.245,0.75,21.092
	c0.359,5.088,0.854,10.152,1.448,15.217c1.284,10.939,3.298,21.741,5.881,32.443c4.547,18.836,10.956,37.021,19.265,54.519
	c6.488,13.662,13.985,26.756,22.625,39.187c10.515,15.129,22.309,29.151,35.63,41.899c6.643,6.355,13.549,12.391,20.779,18.06
	c13.304,10.432,27.503,19.473,42.565,27.143c12.402,6.315,25.238,11.596,38.51,15.801c10.279,3.258,20.708,5.894,31.327,7.797
	c6.985,1.252,13.998,2.216,21.063,2.898c7.467,0.723,14.939,1.203,22.437,1.215c4.146,0.006,8.292,0.023,12.447-0.231
	c4.772-0.294,9.541-0.564,14.309-0.992c7.947-0.715,15.816-1.892,23.646-3.394c22.563-4.321,44.088-11.709,64.67-21.858
	c11.697-5.771,22.873-12.438,33.574-19.896c10.365-7.227,20.129-15.203,29.4-23.779c5.104-4.721,9.926-9.723,14.639-14.842
	c9.813-10.658,18.705-22.028,26.721-34.088c7.795-11.729,14.615-24.011,20.57-36.776c5.914-12.682,10.813-25.74,14.777-39.156
	c3.23-10.947,5.752-22.053,7.699-33.303c2.33-13.453,3.529-27.015,3.98-40.632c0.309-9.331,0.055-18.672-0.707-27.998
	c-0.42-5.161-0.855-10.313-1.469-15.455c-1.295-10.858-3.281-21.585-5.846-32.211c-4.547-18.842-10.949-37.035-19.252-54.541
	c-6.516-13.735-14.076-26.879-22.734-39.392c-9.205-13.302-19.506-25.691-30.848-37.208c-5.547-5.632-11.396-10.949-17.438-16.059
	c-17.291-14.623-36.111-26.85-56.561-36.6c-16.775-8.005-34.205-14.077-52.301-18.33c-16.354-3.843-32.941-5.846-49.691-6.455
	c-8.85-0.322-17.708,0.02-26.558,0.698c-9.946,0.764-19.804,2.045-29.591,3.938c-22.228,4.297-43.464,11.55-63.769,21.524
	c-11.341,5.572-22.198,11.985-32.618,19.147c-13.067,8.981-25.192,19.093-36.503,30.185c-5.76,5.65-11.16,11.642-16.391,17.788
	c-13.311,15.642-24.642,32.614-34.163,50.795c-8.134,15.531-14.715,31.705-19.851,48.472c-6.591,21.518-10.475,43.528-11.912,65.962
	C4.574,269.195,4.15,275.183,4.444,280.647z"/>
<path fill="#FFFFFF" d="M276.531,416.705c2.86-6.019,6.645-11.449,10.693-16.7c5.251-6.811,11.195-12.939,18.146-18.044
	c16.525-12.134,34.729-15.469,54.533-10.364c1.625,0.418,3.26,0.797,4.873,1.248c2.816,0.788,3.242,2.18,1.424,4.529
	c-0.791,1.02-1.762,1.845-2.766,2.646c-0.996,0.797-1.98,1.623-2.889,2.517c-0.871,0.854-1.479,1.892-1.49,3.174
	c-0.016,1.636-0.787,2.903-1.936,3.978c-1.645,1.533-3.396,2.982-3.262,5.563c0.027,0.586-0.564,0.726-0.943,0.97
	c-1.814,1.172-2.525,2.84-2.191,4.932c0.127,0.787,0.064,1.32-0.689,1.787c-1.998,1.238-2.344,3.177-1.811,5.256
	c0.279,1.091,0.166,1.73-0.781,2.421c-1.791,1.307-2.096,3.315-2.105,5.364c-0.004,0.875,0.145,1.752,0.24,2.625
	c0.064,0.572,0.1,1.07-0.549,1.406c-2.707,1.402-3.342,3.892-3.363,6.683c-0.58,0.549-1.357,0.465-2.01,0.68
	c-2.295,0.752-3.563,2.4-4.057,4.633c-0.23,1.035-0.67,1.262-1.623,1.174c-2.123-0.196-3.643,0.937-4.957,2.431
	c-2.811,3.192-3.457,3.26-7.025,0.569c0.438,2.258,0.813,4.381,0.514,6.545c-0.086,0.607,0.391,0.832,0.826,1.023
	c2.852,1.24,4.523,3.451,5.322,6.396c0.084,0.308,0.135,0.787,0.334,0.871c2.047,0.854,1.666,2.711,1.797,4.316
	c0.109,1.352,0.049,2.717,0.078,4.076c0.025,1.057-0.063,1.981-1.014,2.766c-0.898,0.742-1.025,1.93-1.082,3.078
	c-0.119,2.443,0.467,4.771,1.182,7.062c0.318,1.021,0.436,1.678-0.674,2.364c-2.004,1.24-2.615,3.34-2.809,5.563
	c-0.068,0.795-0.078,1.608,0.02,2.396c0.107,0.851-0.313,1.133-1.016,1.295c-0.621,0.144-1.236,0.316-1.842,0.517
	c-2.813,0.918-4.857,2.713-6.059,5.424c-0.357,0.805-0.645,1.563-1.572,1.979c-0.887,0.398-0.994,1.361-1.057,2.269
	c-0.168,2.406,0.375,4.602,1.859,6.531c1.023,1.33,2.068,2.646,3.072,3.989c2.088,2.798,2.244,6.078,2.23,9.367
	c-0.006,1.404-1.014,2.271-2.121,3.006c-0.686,0.453-1.314,0.427-2,0.017c-1.686-1.011-2.66-2.519-3.059-4.396
	c-0.314-1.49-0.369-3.006-0.289-4.535c0.191-3.606-0.08-7.188-0.631-10.758c-0.227-1.473-0.814-2.76-1.705-3.904
	c-0.828-1.063-1.834-1.688-3.326-1.254c-1.768,0.515-3.293-0.102-4.59-1.36c-0.631-0.613-1.26-1.232-1.939-1.787
	c-1.023-0.834-2.203-1.101-3.314-0.289c-1.596,1.168-3.027,0.643-4.432-0.25c-1.445-0.918-2.431-2.293-3.404-3.668
	c-3.215-4.541-4.762-9.682-5.697-15.103c-1.266-7.321-2.115-14.717-3.799-21.967c-0.723-3.117-1.611-6.18-2.824-9.145
	c-0.215-0.523-0.354-1.101-1.051-1.144c-0.805-0.051-1.139,0.537-1.328,1.154c-0.453,1.459-0.705,2.947-0.471,4.494
	c0.291,1.91,0.283,3.828-0.088,5.729c-0.182,0.933-0.332,1.89-1.218,2.601c-0.837-1.369-1.192-2.814-1.204-4.338
	c-0.01-1.438-0.014-2.884,0.127-4.313c0.11-1.139-0.003-2.244-0.23-3.332c-0.172-0.826-0.303-1.875-1.42-1.977
	c-1.104-0.101-1.112,0.959-1.389,1.647c-2.217,5.527-3.326,11.334-4.274,17.177c-1.038,6.389-1.854,12.817-3.402,19.112
	c-1.089,4.429-3.398,8.244-6.287,11.722c-0.717,0.862-1.618,1.541-2.696,1.942c-1.012,0.377-2.025,0.558-2.967-0.139
	c-1.51-1.115-2.835-0.715-4.092,0.43c-0.354,0.324-0.713,0.646-1.04,0.994c-1.47,1.574-3.167,2.391-5.368,1.74
	c-1.264-0.373-2.162,0.321-2.907,1.203c-1.171,1.385-1.703,3.032-1.96,4.815c-0.506,3.498-0.568,7.01-0.48,10.533
	c0.038,1.52,0.043,3.031-0.431,4.514c-0.348,1.093-0.841,2.08-1.656,2.875c-1.971,1.925-3.226,1.705-4.995-0.797
	c-0.344-0.487-0.536-1.229-0.486-1.824c0.274-3.254,0.378-6.569,2.653-9.268c0.927-1.1,1.757-2.281,2.668-3.395
	c1.681-2.056,2.068-4.443,1.867-6.992c-0.051-0.646-0.064-1.49-0.673-1.705c-1.453-0.512-1.647-1.857-2.234-2.938
	c-1.519-2.791-3.905-4.393-6.94-5.039c-1.312-0.276-1.784-0.748-1.662-2.223c0.254-3.078-0.376-5.928-3.362-7.65
	c-0.74-0.426-0.317-0.957-0.17-1.45c0.573-1.916,1.085-3.851,1.275-5.847c0.186-1.953,0.115-3.873-1.548-5.28
	c-0.496-0.423-0.567-0.923-0.569-1.494c-0.006-2.158-0.136-4.32,0.242-6.465c0.179-1.015,0.207-2.093,1.437-2.543
	c0.505-0.187,0.525-0.75,0.649-1.214c0.749-2.78,2.365-4.871,5.01-6.069c0.832-0.377,1.272-0.765,1.052-1.787
	c-0.392-1.82,0.224-3.625,0.378-5.39c-0.488-0.198-0.665,0.087-0.909,0.263c-2.342,1.694-3.699,1.528-5.48-0.738
	c-1.506-1.92-3.248-3.336-5.872-3.02c-0.76,0.092-0.944-0.312-1.087-0.916c-0.671-2.828-2.329-4.683-5.281-5.188
	c-0.537-0.092-0.849-0.25-0.879-0.877c-0.13-2.697-0.947-5.03-3.567-6.334c-0.59-0.293-0.351-0.789-0.324-1.252
	c0.07-1.194,0.171-2.394,0.15-3.59c-0.031-1.752-0.605-3.33-2.042-4.412c-0.797-0.601-1.114-1.149-0.86-2.19
	c0.547-2.248,0.291-4.324-1.94-5.654c-0.613-0.365-0.556-0.877-0.473-1.452c0.335-2.296-0.448-4.08-2.47-5.275
	c-0.417-0.245-0.822-0.456-0.767-1.063c0.189-2.096-1.123-3.456-2.501-4.672c-1.512-1.332-2.531-2.799-2.662-4.887
	c-0.114-1.811-1.387-2.986-2.676-4.102c-1.329-1.148-2.838-2.082-3.999-3.434c-2.493-2.902-2.036-4.23,1.714-5.205
	c4.562-1.185,9.11-2.371,13.814-2.93c14.086-1.67,27.178,1.167,39.309,8.475c9.451,5.692,17.156,13.299,23.875,21.966
	c3.089,3.983,5.898,8.161,8.496,12.481c0.498,0.828,0.902,1.688,1.244,2.584c0.248,0.648,0.358,1.42,1.244,1.563
	c0.119,0.016,0.192-0.038,0.213-0.161c-0.029-1.342-0.061-2.685-0.088-4.021c0.178,0.182,0.293,0.158,0.338-0.098
	c0.23,0.391,0.555,0.594,1.017,0.512c-0.03,0.054-0.058,0.104-0.083,0.154c0.07-0.029,0.146-0.05,0.209-0.09
	c0.189-0.12,0.375-0.248,0.563-0.372c-0.035,0.985-0.068,1.972-0.103,2.956c-0.017,0.484,0.108,0.889,0.604,1.088
	c-0.002,0.001,0.104-0.056,0.104-0.056L276.531,416.705z M320.125,428.402c1.412,0.174,2.756,0.733,4.232,0.571
	c2.631-0.291,3.777-2.327,2.439-4.6c-1.396-2.375-3.67-3.391-6.307-3.668c-1.438-0.152-2.785,0.207-3.502,1.555
	c-0.773,1.455-0.213,2.82,0.799,3.953c0.723,0.81,1.588,1.492,2.391,2.232c-1.174-0.011-2.285-0.679-3.525-0.15
	c-1.766,0.75-2.094,2.23-0.672,3.527c0.877,0.799,1.93,1.069,3.098,1.028c1.01-0.034,1.947-0.248,2.43-1.223
	c0.512-1.035-0.008-1.832-0.77-2.529C320.509,428.894,320.328,428.636,320.125,428.402z M229.011,428.9
	c-0.106,0.207-0.208,0.416-0.318,0.621c-0.984,1.821-0.352,3.075,1.69,3.297c1.052,0.112,2.081,0,2.991-0.604
	c0.83-0.551,1.538-1.223,1.367-2.33c-0.175-1.139-1.122-1.412-2.056-1.729c-0.764-0.261-1.57,0.346-2.29-0.189
	c0.647-0.684,1.367-1.313,1.925-2.061c0.771-1.039,1.343-2.188,0.642-3.519c-0.669-1.271-1.813-1.631-3.162-1.715
	c-1.303-0.08-2.479,0.461-3.73,0.603c0.933-0.719,2.015-1.234,2.809-2.146c2.03-2.33,1.323-4.473-1.643-5.292
	c-1.55-0.428-2.97,0.191-4.455,0.188c0.414-0.797,1.301-0.729,1.966-1.059c1.647-0.816,3.282-1.646,4.434-3.146
	c1.493-1.943,1.039-3.824-1.185-4.854c-0.719-0.333-1.488-0.522-2.293-0.614c-1.677-0.188-3.351-0.146-5,0.127
	c-2.851,0.475-5.532,1.432-7.768,3.34c-1.167,0.996-2.289,2.129-1.839,3.856c0.415,1.595,1.809,2.08,3.235,2.468
	c1.886,0.514,3.779,0.452,5.678,0.146c0.938-0.151,1.858-0.444,2.824-0.299c-1.213,0.72-2.587,1.173-3.617,2.195
	c-1.032,1.024-2.063,2.133-1.576,3.709c0.522,1.688,2.09,2.029,3.61,2.203c0.689,0.078,1.418-0.035,2.109-0.168
	c0.925-0.176,1.831-0.455,2.746-0.691c-0.998,1.104-2.433,1.752-3.143,3.168c-1.188,2.369-0.124,4.405,2.517,4.584
	C226.65,429.072,227.834,428.938,229.011,428.9z M321.859,461.751c2.088,0.033,2.873-0.588,3.057-2.42
	c0.1-0.988-0.133-1.908-0.617-2.764c-0.738-1.298-1.912-1.938-2.912-1.609c-1.006,0.33-1.65,1.537-1.689,2.924
	c-0.023,0.84,0.602,1.582,0.381,2.558c-1.201-0.691-2.336-1.688-3.586-0.615c-1.15,0.983-1.119,2.399-0.861,3.785
	c0.455,2.424,1.467,4.549,3.342,6.213c0.82,0.727,1.748,1.219,2.84,0.813c1.16-0.434,1.307-1.524,1.352-2.586
	c0.049-1.127-0.088-2.235-0.521-3.291c-0.361-0.883-0.73-1.762-1.098-2.643C321.648,461.994,321.753,461.873,321.859,461.751z
	 M227.849,461.871c0.157,0.139,0.314,0.275,0.472,0.414c-0.9,1.873-1.824,3.756-1.652,5.908c0.2,2.502,2.041,3.405,3.951,1.85
	c2.629-2.145,3.915-5.006,3.648-8.422c-0.147-1.896-1.329-2.537-3.188-1.939c-0.348,0.111-0.63,0.502-1.081,0.238
	c-0.229-0.551,0.047-1.074,0.133-1.604c0.093-0.57,0.019-1.117-0.132-1.652c-0.359-1.279-1.359-1.994-2.438-1.781
	c-1.515,0.297-2.833,2.447-2.671,4.354C225.04,460.994,225.833,461.701,227.849,461.871z M327.347,414.021
	c0.973-0.117,1.896,0.162,2.838,0.305c2.236,0.338,4.469,0.316,6.576-0.605c2.297-1.007,2.732-2.828,1.223-4.812
	c-0.842-1.103-1.955-1.878-3.166-2.498c-3.246-1.662-6.686-2.41-10.336-2.081c-0.801,0.07-1.57,0.209-2.316,0.525
	c-2.645,1.125-3.117,3.09-1.236,5.274c0.898,1.044,2.072,1.728,3.26,2.388c0.602,0.334,1.381,0.375,1.773,1.06
	c-1.314,0.264-2.68-0.069-3.984,0.431c-2.094,0.803-2.717,2.464-1.553,4.348c1.695,2.742,6.709,4.448,9.773,3.326
	c2.1-0.768,2.662-2.482,1.406-4.363c-0.633-0.943-1.527-1.603-2.469-2.223C328.552,414.71,327.75,414.694,327.347,414.021z
	 M272.841,431.099c-1.692,0.992-2.928,2.111-4.112,3.295c-2.898,2.896-5.277,6.207-7.323,9.726
	c-5.9,10.147-10.008,21.031-12.946,32.371c-0.509,1.965-0.495,3.979-0.045,5.938c0.709,3.086,2.787,3.83,5.312,1.922
	c2.039-1.539,3.358-3.61,4.012-6.092c1.139-4.324,2.327-8.635,3.409-12.973c1.487-5.959,3.225-11.865,5.124-17.68
	c1.542-4.722,3.394-9.427,5.671-13.902c0.35-0.689,0.84-1.344,1.008-2.59c-0.06,0.018-0.127,0.022-0.176,0.055
	c-0.173,0.115-0.156,0.215,0.049,0.256c0.037,0.006,0.114-0.07,0.135-0.121C272.98,431.248,272.955,431.177,272.841,431.099z
	 M252.474,430.392c0.27-0.821,1.063-0.782,1.684-1.002c5.151-1.811,10.423-3.098,16.296-3.549
	c-4.461-1.201-8.524-0.641-12.542-0.084c-8.539,1.18-16.483,4.289-24.275,7.834c-1.03,0.469-1.947,1.105-2.788,1.846
	c-1.388,1.222-1.85,2.392-1.35,3.277c0.535,0.947,2.501,1.26,3.965,0.625c0.073-0.031,0.142-0.072,0.209-0.115
	c5.108-3.147,10.485-5.764,15.955-8.217c0.97-0.436,1.86-0.723,2.891-0.651c-0.189,0.135-0.36,0.317-0.57,0.399
	c-7.067,2.73-13.294,6.859-19.234,11.482c-1.93,1.502-3.085,3.479-3.597,5.78c-0.67,3.015-0.062,5.771,2.514,7.74
	c2.392,1.832,4.976,1.926,7.644,0.525c1.037-0.545,1.703-1.408,2.34-2.338c7.402-10.812,16.6-19.599,28.531-25.302
	c0.271-0.131,0.579-0.25,0.583-0.635c-2.315-0.608-5.978-0.479-9.703,0.168C258.108,428.688,255.325,429.66,252.474,430.392z
	 M291.921,428.492c-0.961,0.309-1.873-0.084-2.787-0.24c-2.525-0.434-5.063-0.664-7.622-0.639c-0.839,0.008-1.733-0.121-2.494,0.434
	c0.063,0.121,0.084,0.226,0.144,0.256c0.481,0.273,0.965,0.543,1.459,0.793c6.233,3.166,11.877,7.133,16.91,12.013
	c4.033,3.909,7.457,8.293,10.723,12.823c0.658,0.91,1.297,1.804,2.336,2.347c2.475,1.293,4.918,1.34,7.252-0.232
	c2.396-1.613,3.447-3.981,3.125-6.813c-0.328-2.861-1.58-5.313-3.953-7.076c-1.959-1.455-3.891-2.951-5.902-4.324
	c-2.613-1.783-5.391-3.275-8.207-4.732c-2.988-1.543-6.05-2.766-9.221-3.803c-0.616-0.203-1.447-0.059-1.813-0.844
	c1.18-0.266,2.18,0.367,3.209,0.713c7.129,2.396,13.824,5.734,20.287,9.547c1.063,0.627,2.096,1.15,3.357,0.947
	c1.867-0.299,2.445-1.541,1.367-3.074c-0.938-1.332-2.264-2.242-3.723-2.926c-1.586-0.746-3.189-1.457-4.807-2.129
	c-7.84-3.26-15.868-5.783-24.419-6.279c-2.431-0.141-4.847-0.242-7.638,0.639c3.092,0.138,5.688,0.585,8.242,1.216
	C289.162,427.453,290.729,427.441,291.921,428.492z M279.397,422.24c0.478-0.42,0.97-0.825,1.429-1.265
	c4.524-4.353,9.697-7.879,15.273-10.617c8.314-4.082,17.17-6.793,26.336-8.174c5.74-0.863,10.928-5.25,10.215-13.25
	c-0.576-6.48-5.563-10.318-11.574-8.807c-13.256,3.337-23.678,10.797-31.511,21.921c-4.013,5.699-7.147,11.884-9.735,18.351
	c-0.231,0.58-0.629,1.137-0.4,1.824l-0.094,0.041L279.397,422.24z M270.468,421.79c-0.555-2.066-1.369-3.705-2.117-5.359
	c-4.063-9.002-9.188-17.279-16.523-24.031c-6.737-6.201-14.654-10.191-23.501-12.354c-3.262-0.796-6.271-0.084-8.443,2.623
	c-3.003,3.742-3.484,7.988-1.85,12.434c1.487,4.045,4.635,6.178,8.747,6.918c3.766,0.68,7.505,1.47,11.188,2.484
	c11.383,3.141,21.862,8.036,30.678,16.09C269.106,421.015,269.474,421.579,270.468,421.79z M240.207,418.021
	c-1.422,0.418-2.728,0.785-3.86,1.568c-1.157,0.803-2.114,1.803-2.006,3.331c0.108,1.533,1.196,2.393,2.479,2.98
	c1.879,0.858,3.857,0.946,5.871,0.586c6.763-1.22,13.548-2.291,20.391-2.965c1.7-0.169,3.393-0.394,5.065-0.591
	c-0.028-0.575-0.316-0.733-0.568-0.916c-4.807-3.453-9.71-6.755-14.984-9.469c-2.702-1.39-5.454-2.673-8.412-3.423
	c-2.783-0.705-5.608-1.183-8.489-0.804c-2.411,0.318-4.075,2.141-4.074,4.306c0.002,2.456,1.689,4.476,4.072,4.823
	C237.191,417.667,238.701,417.831,240.207,418.021z M281.833,422.74c0.154,0.367,0.494,0.344,0.801,0.365
	c4.142,0.274,8.253,0.813,12.352,1.454c4.174,0.652,8.348,1.302,12.514,1.994c1.863,0.31,3.668,0.187,5.395-0.555
	c1.367-0.586,2.541-1.428,2.641-3.098c0.102-1.649-0.934-2.649-2.172-3.469c-1.063-0.703-2.311-0.976-3.906-1.351
	c1.928-0.235,3.463-0.459,5.004-0.597c0.756-0.067,1.381-0.319,1.947-0.799c1.506-1.275,2.33-3.735,1.688-5.414
	c-0.729-1.903-2.234-2.844-4.223-3.033c-3.225-0.305-6.371,0.135-9.418,1.185c-8.322,2.866-15.455,7.823-22.52,12.893
	C281.843,422.38,281.863,422.595,281.833,422.74z M277.218,431.289c-0.383,0.447-0.113,0.717,0.016,0.979
	c4.271,8.707,7.232,17.892,9.855,27.191c1.758,6.228,3.423,12.48,5.076,18.736c0.662,2.5,1.994,4.539,4.002,6.1
	c2.484,1.933,4.604,1.105,5.26-1.965c0.479-2.234,0.385-4.455-0.252-6.646c-0.777-2.684-1.547-5.368-2.383-8.034
	c-1.959-6.252-4.496-12.277-7.408-18.14c-2.463-4.953-5.323-9.664-9.012-13.823C280.86,433.98,279.25,432.373,277.218,431.289z
	 M270.063,430.458c-2.571,0.748-4.762,2.016-6.843,3.484c-6.957,4.914-12.188,11.434-16.907,18.391
	c-1.247,1.838-1.48,4.059-0.65,6.213c0.775,2.012,2.379,2.549,4.251,1.523c1.01-0.556,1.705-1.371,2.212-2.433
	c1.413-2.953,2.779-5.938,4.404-8.774c1.811-3.162,3.596-6.347,5.804-9.273C264.742,436.398,267.303,433.353,270.063,430.458z
	 M279.867,430.486c0,0.479,0.35,0.705,0.623,0.967c4.09,3.885,7.422,8.371,10.367,13.154c2.514,4.079,4.71,8.336,6.758,12.668
	c0.453,0.952,0.953,1.83,1.846,2.45c2.229,1.548,4.281,0.826,4.914-1.809c0.533-2.211,0.156-4.313-1.203-6.148
	c-3.49-4.713-7-9.354-11.377-13.383c-3.092-2.846-6.281-5.354-9.959-7.291C281.244,430.783,280.662,430.226,279.867,430.486z
	 M210.069,371.856c-1.594,0-3.198-0.105-4.781,0.024c-2.223,0.185-4.434,0.558-6.484,1.515c-0.64,0.297-1.408,0.656-1.379,1.489
	c0.028,0.813,0.786,1.155,1.441,1.444c0.653,0.288,1.33,0.563,2.024,0.707c1.48,0.306,2.97,0.615,4.472,0.757
	c4.791,0.45,9.56,0.349,14.216-1.035c1.106-0.329,2.651-0.549,2.623-2.001c-0.027-1.417-1.569-1.622-2.67-1.98
	C216.458,371.778,213.263,371.705,210.069,371.856z M340.181,378.044c2.959,0.116,6.135-0.234,9.23-1.075
	c1.182-0.321,2.908-0.563,2.965-2.015c0.064-1.674-1.746-1.889-2.996-2.211c-6.139-1.585-12.316-1.563-18.488-0.176
	c-0.844,0.188-1.693,0.517-2.436,0.955c-1.326,0.781-1.297,1.684,0.02,2.531c0.811,0.521,1.729,0.822,2.662,1.045
	C334.027,377.785,336.955,378.119,340.181,378.044z M232.824,473.494c0.065,1.635-0.208,3.174,1.197,3.756
	c1.451,0.6,2.312-0.746,3.131-1.676c0.833-0.947,1.692-1.928,1.93-3.244c0.06-0.332,0.299-0.521,0.46-0.777
	c1.821-2.883,2.427-6.147,2.778-9.459c0.124-1.174,0.093-2.598-1.242-3.096c-1.321-0.496-2.238,0.582-2.982,1.492
	C234.921,464.378,233.389,468.935,232.824,473.494z M317.042,474.347c-0.043-4.178-2.49-10.645-5.1-13.655
	c-0.209-0.24-0.418-0.484-0.656-0.695c-0.713-0.633-1.441-1.418-2.498-1.019c-1.064,0.404-1.129,1.438-1.158,2.423
	c-0.063,2.077,0.189,4.077,0.904,6.071c1.057,2.953,2.248,5.813,4.305,8.215c0.762,0.89,1.611,2.063,2.965,1.58
	C317.191,476.775,316.861,475.292,317.042,474.347z M341.162,378.905c-2.096-0.045-4.023,0.359-5.656,1.648
	c-2.086,1.648-2.088,3.98-0.059,5.672c2.779,2.318,8.293,2.45,11.213,0.27c2.424-1.813,2.383-4.326-0.129-6.081
	C344.908,379.281,343.07,378.856,341.162,378.905z M208.55,388.075c2.086-0.126,4.109-0.498,5.8-1.846
	c2.129-1.695,2.124-3.938,0.031-5.633c-2.818-2.279-8.668-2.205-11.407,0.148c-2.021,1.734-1.963,4.053,0.181,5.646
	C204.745,387.574,206.611,387.933,208.55,388.075z M208.561,396.722c2.001-0.148,3.994-0.656,5.484-2.3
	c1.441-1.589,1.19-3.321-0.568-4.466c-2.556-1.663-7.36-0.785-9.16,1.674c-1.116,1.525-0.867,3.074,0.707,4.123
	C206.048,396.437,207.22,396.67,208.561,396.722z M339.73,389.073c-0.99-0.073-1.93,0.185-2.799,0.578
	c-2.271,1.027-2.631,3.277-0.852,5.045c1.961,1.945,5.861,2.597,8.277,1.382c2.137-1.075,2.508-3.196,0.813-4.902
	C343.677,389.674,341.777,389.161,339.73,389.073z M308.515,472.298c-0.242-2.801-0.918-5.229-2.613-7.268
	c-0.633-0.761-1.42-1.349-2.492-1.111c-1.117,0.246-1.471,1.188-1.613,2.152c-0.51,3.424,0.289,6.516,2.736,9.014
	c1.564,1.6,3.061,1.1,3.672-1.109C308.371,473.367,308.439,472.728,308.515,472.298z M241.492,471.726c0,0.48-0.05,0.966,0.01,1.438
	c0.145,1.127,0.345,2.318,1.604,2.709c1.28,0.396,2.128-0.488,2.818-1.387c1.836-2.39,2.558-5.127,2.256-8.107
	c-0.105-1.043-0.422-2.106-1.601-2.447c-1.163-0.338-2.007,0.328-2.69,1.162C242.317,467.017,241.614,469.275,241.492,471.726z
	 M337.234,397.668c-2.678,0.022-4.717,1.687-4.639,3.784c0.076,2.033,2.014,3.505,4.627,3.515c2.664,0.011,4.824-1.618,4.824-3.639
	C342.046,399.313,339.855,397.646,337.234,397.668z M212.521,405.015c0.959,0.146,1.993-0.339,2.958-0.785
	c1.131-0.521,1.842-1.567,1.846-2.862c0.005-1.292-0.688-2.326-1.813-2.886c-0.964-0.479-2-0.862-3.148-0.82
	c-2.546,0.092-4.495,1.646-4.509,3.672C207.842,403.364,209.771,404.948,212.521,405.015z M310.458,481.111
	c-0.1-0.406-0.18-1.054-0.418-1.634c-0.438-1.071-1.111-1.979-2.406-2.01c-0.953-0.022-1.789,0.933-2.135,2.275
	c-0.201,0.789-0.166,1.572,0.045,2.356c0.492,1.832,1.586,2.845,2.869,2.634c1.127-0.187,1.986-1.515,2.045-3.162
	C310.462,481.492,310.458,481.412,310.458,481.111z M244.417,480.445c-0.019-0.101-0.05-0.752-0.27-1.334
	c-0.321-0.847-0.902-1.552-1.879-1.631c-0.873-0.072-1.496,0.471-1.961,1.153c-0.965,1.418-1.095,2.963-0.539,4.553
	c0.304,0.867,0.875,1.533,1.883,1.599c0.884,0.057,1.51-0.422,1.993-1.103C244.215,482.876,244.453,481.962,244.417,480.445z
	 M224.087,450.759c-0.046,1.476,1.049,2.775,2.363,2.808c1.051,0.022,1.91-0.854,1.959-2.007c0.055-1.271-1.252-2.801-2.436-2.852
	C224.966,448.666,224.124,449.582,224.087,450.759z M321.546,451.425c-0.029,1.267,0.645,2.086,1.74,2.125
	c1.26,0.047,2.523-1.271,2.551-2.662c0.021-1.08-0.846-2.131-1.799-2.184C322.832,448.64,321.582,450.005,321.546,451.425z"/>
<path fill="#FFFFFF" d="M324.271,115.264c0,4.467-0.002,9.007,0,13.547c0.008,16.633,0.02,33.266,0.023,49.899
	c0,2.068-0.018,2.075-2.061,2.085c-1.76,0.009-3.52-0.011-5.277,0.004c-0.682,0.006-1.051-0.236-1.016-0.972
	c0.025-0.559,0.004-1.119,0.004-1.679c0-26.389-0.004-52.779,0.004-79.168c0.002-3.029-0.369-2.651,2.678-2.67
	c2.879-0.018,5.76,0.046,8.637-0.027c1.234-0.031,1.814,0.268,2.043,1.621c1.719,10.238,3.52,20.462,5.311,30.688
	c1.723,9.832,3.465,19.661,5.201,29.49c0.053,0.295-0.029,0.656,0.416,0.875c0.303-0.559,0.166-1.159,0.156-1.727
	c-0.379-19.59-0.137-39.183-0.205-58.774c0-0.4,0.016-0.8,0.002-1.199c-0.025-0.712,0.314-0.966,1.014-0.958
	c2.158,0.027,4.318,0.017,6.477,0.007c0.596-0.002,0.879,0.262,0.873,0.854c-0.006,0.479,0.004,0.959,0.004,1.439
	c0,26.629,0.002,53.259-0.006,79.888c0,2.6,0.35,2.292-2.271,2.307c-2.641,0.016-5.279-0.063-7.914,0.032
	c-1.232,0.044-1.643-0.415-1.854-1.569c-1.576-8.641-3.215-17.27-4.834-25.902c-2.27-12.085-4.535-24.172-6.834-36.251
	C324.716,116.454,324.761,115.676,324.271,115.264z"/>
<path fill="#FFFFFF" d="M132.501,180.789c-3.357-28.211-6.69-56.211-10.04-84.353c3.205,0,6.293,0,9.563,0
	c2.362,22.3,4.723,44.588,7.084,66.876c1.062-2.504,1.096-5.093,1.376-7.633c1.088-9.851,2.067-19.713,3.097-29.57
	c0.972-9.3,1.95-18.6,2.936-27.899c0.2-1.883,0.224-1.891,2.176-1.9c2.384-0.011,4.768-0.002,7.354-0.002
	c-0.413,3.62-0.791,7.01-1.188,10.399c-1.051,8.969-2.109,17.937-3.168,26.905c-1.049,8.889-2.108,17.776-3.151,26.665
	c-0.727,6.191-1.44,12.383-2.147,18.577c-0.219,1.912-0.2,1.929-2.125,1.934C140.436,180.796,136.603,180.789,132.501,180.789z"/>
<path fill="#FFFFFF" d="M183.335,270.723c0-2.16,0.028-4.319-0.007-6.479c-0.052-3.189-1.202-5.896-3.55-8.107
	c-2.098-1.976-4.245-3.888-6.517-5.662c-1.071-0.836-2.14-1.679-3.165-2.569c-5.399-4.69-8.037-10.611-7.923-17.773
	c0.048-3.039-0.002-6.079,0.013-9.119c0.006-1.278,0.064-2.547,0.356-3.811c1.367-5.914,4.717-9.089,10.678-10.177
	c2.071-0.378,4.143-0.431,6.213-0.26c7.346,0.607,11.611,4.757,12.576,12.128c0.563,4.303,0.275,8.627,0.362,12.942
	c0.019,0.939-0.353,1.262-1.272,1.243c-2.159-0.043-4.32-0.044-6.479,0c-0.926,0.019-1.315-0.314-1.246-1.247
	c0.047-0.636,0.009-1.279,0.007-1.919c-0.007-2.799,0.086-5.604-0.045-8.398c-0.22-4.69-4.068-7.141-8.455-5.485
	c-1.525,0.576-2.508,1.682-2.977,3.221c-0.185,0.606-0.317,1.257-0.316,1.888c0.005,3.997-0.169,7.994,0.143,11.991
	c0.171,2.195,1.057,3.975,2.551,5.527c2.339,2.431,4.97,4.512,7.693,6.485c2.137,1.548,4.232,3.145,6.183,4.934
	c3.371,3.091,5.122,6.941,5.218,11.456c0.121,5.597,0.076,11.198,0.013,16.796c-0.015,1.344-0.277,2.71-0.608,4.021
	c-1.326,5.243-4.622,8.414-10.007,9.381c-3.588,0.645-7.162,0.655-10.719-0.108c-4.7-1.009-7.802-3.841-9.272-8.42
	c-0.54-1.679-0.909-3.412-0.948-5.172c-0.078-3.438-0.031-6.879-0.088-10.318c-0.017-1.003,0.283-1.444,1.354-1.414
	c2.078,0.06,4.161,0.067,6.239-0.002c1.137-0.038,1.645,0.333,1.511,1.501c-0.054,0.474-0.009,0.959-0.008,1.439
	c0.003,2.56-0.046,5.121,0.019,7.679c0.135,5.327,4.735,8.144,9.585,5.888c2.057-0.957,2.821-2.766,2.891-4.88
	c0.078-2.397,0.018-4.798,0.018-7.198C183.35,270.723,183.342,270.723,183.335,270.723z"/>
<path fill="#FFFFFF" d="M286.018,285.817c-0.742,0.26-0.813,1.078-1.179,1.651c-2.414,3.804-6.271,5.421-10.989,4.556
	c-4.151-0.763-7.067-3.687-7.883-7.991c-0.267-1.41-0.42-2.839-0.418-4.289c0.019-12.553,0.012-25.106,0.01-37.659
	c0-1.929,0.185-3.83,0.803-5.668c1.341-3.989,4.224-6.138,8.3-6.607c4.078-0.47,7.639,0.501,9.881,4.344
	c0.224,0.384,0.328,0.875,1.131,1.132c0-0.832,0-1.587,0-2.341c0-8.236,0.003-16.471,0-24.707c-0.002-2.147-0.168-2.051,2.101-2.046
	c1.919,0.004,3.839,0.036,5.757-0.013c0.93-0.024,1.318,0.312,1.231,1.243c-0.046,0.476-0.007,0.959-0.007,1.438
	c0,26.705,0.006,53.411-0.008,80.116c-0.002,3.069,0.482,2.676-2.609,2.692c-1.751,0.01-3.502-0.065-5.253-0.103
	c-0.701-1.582-0.222-3.279-0.479-4.905C286.354,286.353,286.376,286.022,286.018,285.817z M274.958,260.882
	c0,5.435-0.004,10.871,0.004,16.306c0,0.878-0.004,1.763,0.093,2.634c0.265,2.376,1.505,3.776,3.612,4.173
	c2.723,0.51,4.664-0.201,5.781-2.274c0.994-1.844,1.561-3.824,1.557-5.958c-0.016-9.911-0.01-19.823-0.006-29.734
	c0.002-2.032-0.488-3.951-1.313-5.79c-0.633-1.414-1.708-2.229-3.273-2.477c-3.826-0.607-6.197,1.259-6.422,5.136
	c-0.041,0.718-0.031,1.438-0.031,2.158C274.957,250.331,274.958,255.606,274.958,260.882z"/>
<path fill="#FFFFFF" d="M268.118,138.954c0.115-3.862-0.302-7.699,0.289-11.493c0.549-3.516,2.729-5.872,6.008-7.188
	c3.888-1.56,7.936-1.657,12.028-1.23c0.476,0.049,0.944,0.163,1.415,0.251c5.816,1.081,8.768,4.52,8.78,10.456
	c0.032,16.383,0.012,32.767,0.019,49.149c0,2,0.137,1.906-1.986,1.9c-1.758-0.005-3.518-0.037-5.273,0.013
	c-0.93,0.026-1.305-0.334-1.281-1.249c0.029-1.265,0.008-2.53,0.008-3.794c-1.105-0.189-1.25,0.62-1.563,1.064
	c-3.638,5.171-9.569,5.097-14.002,3.754c-2.026-0.614-3.343-2.139-4.159-4.057c-0.662-1.555-1.017-3.195-1.019-4.893
	c-0.004-4.795,0.011-9.59,0.004-14.385c-0.001-1.293,0.233-2.557,0.573-3.781c0.813-2.931,2.659-5.029,5.388-6.384
	c2.37-1.176,4.891-1.925,7.391-2.741c1.438-0.47,2.868-0.969,4.277-1.52c1.659-0.649,2.503-1.865,2.478-3.697
	c-0.037-2.717,0.041-5.436-0.027-8.151c-0.062-2.449-1.17-3.653-3.559-4.042c-0.628-0.102-1.271-0.169-1.906-0.155
	c-3.85,0.087-5.319,1.581-5.362,5.44c-0.021,1.918-0.036,3.837,0.008,5.754c0.021,0.841-0.302,1.112-1.115,1.096
	c-1.917-0.039-3.836-0.006-5.754-0.015C269.3,139.052,268.827,138.999,268.118,138.954z M287.574,148.239
	c-2.273,1.139-4.503,1.717-6.677,2.455c-0.603,0.204-1.173,0.502-1.748,0.779c-1.651,0.797-2.606,2.113-2.7,3.943
	c-0.244,4.715-0.164,9.434-0.047,14.15c0.034,1.378,0.658,2.521,1.941,3.078c4.453,1.932,9.189-0.667,9.224-5.278
	c0.028-3.919,0.007-7.839,0.007-11.758C287.574,153.226,287.574,150.845,287.574,148.239z"/>
<path fill="#FFFFFF" d="M251.687,285.503c-0.922,0.337-1.011,0.742-1.19,1.083c-2.513,4.808-5.625,6.242-11.837,5.371
	c-3.102-0.435-5.187-2.29-6.254-5.276c-0.953-2.671-1.363-5.442-1.372-8.242c-0.048-15.519-0.021-31.037-0.053-46.556
	c-0.002-1.157,0.192-1.756,1.55-1.693c2.234,0.105,4.478,0.045,6.718,0.021c0.783-0.008,1.206,0.243,1.152,1.093
	c-0.035,0.558-0.004,1.12-0.004,1.68c0,14.558-0.004,29.117,0.008,43.676c0.001,1.277-0.007,2.574,0.199,3.827
	c0.366,2.227,1.501,3.256,3.611,3.545c2.943,0.404,4.746-0.307,5.704-2.396c0.876-1.909,1.217-3.933,1.212-6.055
	c-0.033-14.239-0.018-28.478-0.017-42.716c0-0.56,0.021-1.121-0.001-1.68c-0.029-0.727,0.336-0.974,1.018-0.97
	c2.4,0.014,4.8,0.021,7.199-0.005c0.744-0.007,0.987,0.332,0.951,1.017c-0.025,0.478-0.001,0.959-0.001,1.439
	c0,18.878,0,37.756,0,56.635c0,0.479-0.027,0.962,0.003,1.439c0.047,0.747-0.334,0.948-1.01,0.942c-2.16-0.021-4.32-0.029-6.479,0
	c-0.851,0.012-1.116-0.403-1.109-1.168C251.695,288.929,251.687,287.343,251.687,285.503z"/>
<path fill="#FFFFFF" d="M382.583,141.115c0,2.957,0,5.914,0,8.871c0,2.54,0.189,2.374-2.277,2.373
	c-5.033-0.001-10.068-0.001-15.104,0c-0.563,0-1.119,0.018-1.678,0.005c-0.727-0.017-0.965,0.357-0.951,1.036
	c0.1,5.11-0.301,10.234,0.215,15.329c0.299,2.955,1.871,4.292,4.674,4.484c3.816,0.26,5.867-1.549,6.01-5.414
	c0.082-2.235,0.057-4.476,0.02-6.712c-0.016-0.944,0.156-1.483,1.285-1.448c2.236,0.069,4.477,0.028,6.713,0.017
	c0.625-0.003,1.115,0.087,1.094,0.88c-0.092,3.271,0.287,6.563-0.26,9.812c-1.07,6.366-4.225,9.585-10.559,10.675
	c-3.09,0.532-6.219,0.461-9.275-0.347c-5.016-1.328-8.066-5.165-8.658-10.843c-0.107-1.031-0.111-2.075-0.113-3.113
	c-0.008-11.109-0.008-22.218,0-33.327c0-1.597,0.074-3.178,0.414-4.761c1.131-5.279,4.332-8.357,9.605-9.383
	c3.023-0.588,6.033-0.554,9.043,0.06c5.961,1.215,9.438,5.49,9.736,12.217c0.146,3.19,0.025,6.392,0.025,9.589
	C382.554,141.115,382.57,141.115,382.583,141.115z M373.501,138.518c-0.002,0-0.004,0-0.006,0c0-1.838,0.008-3.676-0.006-5.514
	c-0.006-0.877-0.045-1.747-0.324-2.602c-0.826-2.539-2.508-3.601-5.564-3.463c-2.617,0.118-4.186,1.397-4.73,3.895
	c-0.119,0.545-0.244,1.104-0.248,1.657c-0.033,3.995-0.016,7.99-0.064,11.985c-0.012,0.966,0.395,1.239,1.283,1.229
	c2.797-0.03,5.596-0.057,8.391,0.011c1.141,0.028,1.305-0.51,1.285-1.445C373.474,142.354,373.501,140.436,373.501,138.518z"/>
<path fill="#FFFFFF" d="M387.792,136.488c0-10.396,0-20.79,0-31.184c0-0.48,0.035-0.963-0.008-1.439
	c-0.084-0.958,0.168-1.462,1.287-1.424c2.156,0.075,4.318,0.064,6.477,0.004c1.09-0.03,1.338,0.445,1.328,1.434
	c-0.039,3.917-0.016,7.836-0.016,11.754c0,0.72,0.072,1.449-0.016,2.157c-0.164,1.297,0.393,1.59,1.611,1.575
	c4.955-0.063,9.914-0.021,14.871-0.029c1.746-0.003,1.875-0.162,1.84,1.83c-0.023,1.438-0.004,2.878-0.004,4.317
	c0,2.031,0.322,2.136-2.033,2.129c-4.316-0.012-8.635-0.003-12.953-0.003c-0.719,0-1.439,0.029-2.158-0.006
	c-0.801-0.04-1.191,0.282-1.158,1.103c0.02,0.479,0,0.959,0,1.439c0,11.914-0.002,23.828,0.004,35.742
	c0,0.878-0.008,1.765,0.1,2.634c0.469,3.82,4.932,5.884,8.205,3.814c1.172-0.742,1.691-1.904,1.855-3.21
	c0.129-1.028,0.145-2.074,0.145-3.111c0.012-6.077-0.002-12.154,0.012-18.231c0.004-1.824,0.031-1.839,1.846-1.863
	c1.6-0.021,3.197,0.012,4.797-0.009c0.824-0.011,1.375,0.151,1.35,1.169c-0.203,8.067,0.398,16.147-0.365,24.206
	c-0.045,0.477-0.107,0.954-0.205,1.423c-0.977,4.747-3.746,7.67-8.639,8.338c-3.27,0.446-6.547,0.445-9.756-0.426
	c-4.91-1.333-7.676-4.874-8.285-10.554c-0.127-1.188-0.123-2.395-0.123-3.593C387.789,156.478,387.792,146.483,387.792,136.488z"/>
<path fill="#FFFFFF" d="M200.592,136.496c0-10.395,0-20.79,0-31.184c0-0.56,0.045-1.124-0.008-1.678
	c-0.095-0.993,0.404-1.201,1.279-1.184c2.158,0.042,4.319,0.055,6.476-0.004c1.082-0.03,1.348,0.429,1.337,1.426
	c-0.041,3.837-0.017,7.676-0.017,11.514c0,0.799,0.076,1.608-0.017,2.396c-0.149,1.283,0.372,1.6,1.604,1.583
	c4.957-0.065,9.915-0.035,14.872-0.022c1.813,0.004,1.821,0.027,1.841,1.814c0.014,1.279,0.016,2.559,0,3.838
	c-0.034,2.808,0.442,2.605-2.501,2.611c-4.558,0.008-9.115-0.003-13.673,0.005c-2.1,0.003-2.121,0.016-2.123,2.046
	c-0.007,12.313-0.004,24.627,0.001,36.941c0,0.639,0.015,1.282,0.093,1.915c0.337,2.742,1.979,4.295,4.73,4.512
	c3.314,0.261,5.268-1.271,5.384-4.608c0.162-4.632,0.084-9.273,0.101-13.91c0.009-2.399,0.038-4.798-0.014-7.196
	c-0.022-1.029,0.336-1.44,1.378-1.41c1.757,0.051,3.518,0.028,5.276,0.008c0.818-0.009,1.383,0.137,1.357,1.162
	c-0.203,8.067,0.397,16.146-0.364,24.206c-0.045,0.477-0.107,0.954-0.204,1.423c-0.976,4.746-3.74,7.674-8.632,8.344
	c-3.271,0.448-6.548,0.446-9.758-0.422c-4.91-1.329-7.679-4.868-8.291-10.548c-0.127-1.188-0.124-2.396-0.125-3.593
	C200.588,156.485,200.592,146.491,200.592,136.496z"/>
<path fill="#FFFFFF" d="M343.294,260.958c0,5.592,0.008,11.185-0.004,16.777c-0.004,1.676-0.092,3.336-0.434,4.999
	c-1.029,5.023-4.029,7.99-9.039,8.981c-3.252,0.646-6.502,0.671-9.748-0.005c-5.367-1.119-8.377-4.292-9.176-9.678
	c-0.234-1.579-0.389-3.165-0.385-4.771c0.02-10.865,0.012-21.729,0.008-32.595c0-2.164,0.201-4.297,0.744-6.402
	c1.051-4.076,3.598-6.678,7.643-7.776c4.014-1.09,8.059-1.128,12.063,0.006c5.064,1.436,7.781,5.009,8.211,10.814
	c0.17,2.306,0.105,4.63,0.115,6.947C343.306,252.49,343.296,256.724,343.294,260.958z M323.503,260.923c0,0.479,0,0.959,0,1.439
	c0.01,5.439-0.059,10.88,0.057,16.317c0.07,3.312,1.932,5.096,5.045,5.235c3.326,0.149,5.205-1.423,5.693-4.802
	c0.104-0.709,0.143-1.434,0.143-2.151c0.008-10.639,0.002-21.277,0.012-31.917c0.002-1.127-0.102-2.238-0.348-3.333
	c-0.338-1.494-1.178-2.619-2.602-3.231c-4.07-1.751-7.736,0.516-7.975,4.924c-0.035,0.639-0.023,1.28-0.023,1.919
	C323.503,250.524,323.503,255.723,323.503,260.923z"/>
<path fill="#FFFFFF" d="M253.394,174.486c-0.671,1.112-1.158,2.012-1.731,2.853c-2.968,4.354-10.705,5.407-14.742,2.028
	c-1.075-0.899-1.741-2.063-2.241-3.349c-1.027-2.643-1.429-5.396-1.437-8.214c-0.012-4.479-0.01-8.958-0.01-13.436
	c-0.001-11.037,0.001-22.074-0.002-33.11c0-2.083-0.08-1.925,1.963-1.92c1.839,0.005,3.679-0.011,5.518,0.004
	c1.746,0.015,1.746,0.028,1.771,1.865c0.006,0.399,0.001,0.8,0.001,1.199c0,14.556,0.006,29.112-0.008,43.668
	c-0.001,1.449,0.076,2.882,0.476,4.274c0.463,1.615,1.544,2.53,3.231,2.792c3.641,0.564,5.419-0.511,6.485-3.996
	c0.47-1.537,0.688-3.1,0.686-4.718c-0.021-14.156-0.013-28.312-0.012-42.468c0-0.56,0.023-1.12,0-1.679
	c-0.032-0.736,0.341-0.952,1.021-0.946c2.399,0.021,4.799,0.017,7.198,0.005c0.726-0.003,0.983,0.356,0.953,1.035
	c-0.021,0.479-0.001,0.959-0.001,1.439c0,18.874,0,37.749,0,56.624c0,0.4-0.029,0.802,0.004,1.199
	c0.066,0.786-0.193,1.184-1.059,1.171c-2.159-0.033-4.319-0.035-6.478,0.002c-0.849,0.015-1.067-0.354-1.097-1.141
	C253.819,178.035,253.993,176.368,253.394,174.486z"/>
<path fill="#FFFFFF" d="M198.36,246.894c0-10.473,0.002-20.945-0.002-31.418c0-2.097-0.23-2.153,2.032-2.136
	c1.759,0.013,3.518-0.01,5.276,0.006c1.741,0.017,1.759,0.03,1.764,1.872c0.011,4.317,0.003,8.634,0.004,12.951
	c0,2.135-0.251,2.051,2.079,2.05c4.876-0.002,9.753,0.041,14.629-0.029c1.253-0.018,1.685,0.333,1.616,1.597
	c-0.095,1.753-0.096,3.52,0.001,5.273c0.067,1.208-0.405,1.463-1.516,1.451c-4.716-0.053-9.433-0.021-14.15-0.021
	c-0.56,0-1.119,0.011-1.679,0.005c-0.706-0.008-1.003,0.348-0.979,1.036c0.017,0.479-0.001,0.959-0.001,1.439
	c0,11.992,0,23.983,0,35.975c0,1.119,0.009,2.228,0.335,3.323c0.754,2.533,2.578,3.776,5.456,3.648
	c2.599-0.115,3.831-1.203,4.435-3.84c0.217-0.95,0.22-1.902,0.22-2.86c0.004-6.156-0.004-12.312,0.007-18.467
	c0.003-1.925,0.024-1.932,1.974-1.95c1.359-0.013,2.718-0.017,4.077,0.001c1.766,0.024,1.791,0.036,1.792,1.895
	c0.006,6.636-0.004,13.271-0.014,19.906c-0.002,1.762-0.161,3.502-0.546,5.232c-0.986,4.425-3.502,7.235-8.108,7.994
	c-3.437,0.565-6.858,0.556-10.222-0.332c-4.795-1.267-7.294-4.618-8.085-9.368c-0.275-1.654-0.41-3.325-0.406-5.012
	C198.372,267.04,198.36,256.966,198.36,246.894z"/>
<path fill="#FFFFFF" d="M368.199,275.848c0-1.359-0.004-2.718,0-4.076c0.006-1.885-0.768-3.38-2.199-4.586
	c-1.045-0.88-2.199-1.585-3.357-2.294c-2.723-1.668-5.459-3.313-8.146-5.034c-3.705-2.373-5.662-5.751-5.658-10.204
	c0.002-3.197-0.119-6.397,0-9.589c0.184-4.847,2.701-8.034,7.389-9.457c4.15-1.26,8.357-1.281,12.52-0.063
	c4.781,1.399,7.693,4.97,8.039,9.908c0.174,2.467,0.053,4.954,0.1,7.43c0.016,0.762-0.154,1.192-1.045,1.175
	c-2.158-0.041-4.316-0.042-6.475,0.001c-1.002,0.02-1.178-0.483-1.162-1.334c0.037-1.917,0.047-3.837-0.004-5.754
	c-0.078-3.045-1.51-4.486-4.596-4.64c-0.873-0.043-1.768-0.028-2.629,0.107c-2.254,0.353-3.4,1.595-3.459,3.867
	c-0.068,2.635,0.02,5.274,0.002,7.912c-0.01,1.753,0.762,3.035,2.154,4.044c2.205,1.597,4.521,3.006,6.984,4.161
	c2.029,0.952,3.957,2.067,5.779,3.37c3.064,2.188,4.768,5.15,4.855,8.911c0.096,3.994,0.156,7.997,0.002,11.986
	c-0.197,5.102-2.883,8.5-7.709,9.735c-4.563,1.169-9.18,1.144-13.729-0.215c-4.277-1.278-6.621-4.302-7.326-8.599
	c-0.521-3.167-0.23-6.383-0.285-9.578c-0.016-0.833,0.361-1.102,1.158-1.09c2.158,0.033,4.316,0.032,6.475,0.003
	c0.848-0.011,1.1,0.383,1.09,1.165c-0.02,2.158-0.045,4.317,0.008,6.474c0.082,3.462,1.303,4.738,4.748,4.991
	c0.869,0.064,1.764,0.035,2.625-0.082c2.572-0.352,3.762-1.695,3.852-4.331c0.049-1.437,0.008-2.877,0.008-4.316
	C368.203,275.848,368.201,275.848,368.199,275.848z"/>
<path fill="#FFFFFF" d="M301.873,138.042c0-13.359,0-26.718,0-40.078c0-0.56,0.023-1.121-0.002-1.68
	c-0.033-0.714,0.289-0.983,0.992-0.977c2.398,0.021,4.799,0.017,7.199,0.004c0.711-0.004,1.004,0.316,0.973,1.012
	c-0.023,0.559-0.002,1.12-0.002,1.68c0,26.719,0.006,53.438-0.006,80.156c-0.002,2.995,0.473,2.604-2.686,2.635
	c-1.76,0.018-3.521-0.041-5.279,0.02c-0.961,0.033-1.289-0.343-1.197-1.254c0.047-0.475,0.008-0.959,0.008-1.439
	C301.873,164.761,301.873,151.402,301.873,138.042z"/>
<path fill="#FFFFFF" d="M183.309,180.795c-2.58,0-5.209-0.014-7.838,0.009c-0.805,0.007-1.181-0.291-1.116-1.122
	c0.038-0.477,0.005-0.958,0.005-1.438c0-18.785,0-37.57,0-56.355c0-0.16,0.001-0.32,0-0.48c-0.015-2.18-0.135-2.078,2.081-2.072
	c2.069,0.006,4.138,0.001,6.398,0.001c0.136,2.306,0.266,4.502,0.407,6.898c1.089-0.609,1.199-1.635,1.643-2.396
	c1.984-3.406,4.798-5.281,8.846-4.97c0.551,0.042,1.09,0.22,1.639,0.308c0.856,0.137,1.188,0.611,1.173,1.484
	c-0.039,2.311-0.013,4.624-0.013,7.172c-2.143-0.591-4.128-0.933-6.205-0.472c-2.461,0.546-4.188,1.858-5.183,4.159
	c-1.059,2.449-1.606,4.992-1.602,7.672c0.018,12.95,0.012,25.899-0.001,38.849C183.542,178.909,183.717,179.798,183.309,180.795z"/>
<path fill="#FFFFFF" d="M309.314,261.168c0,9.517-0.006,19.033,0.002,28.55c0,2.127,0.084,1.965-1.928,1.96
	c-2-0.003-3.998-0.02-5.998,0.009c-0.857,0.012-1.395-0.197-1.277-1.205c0.055-0.475,0.008-0.959,0.008-1.438
	c0-18.713,0-37.426,0-56.139c0-0.48,0.035-0.963-0.006-1.439c-0.078-0.922,0.299-1.277,1.232-1.259
	c2.318,0.043,4.641,0.03,6.957,0.006c0.705-0.007,1.031,0.258,1.01,0.968c-0.02,0.559,0,1.119,0,1.679
	C309.314,242.295,309.314,251.732,309.314,261.168z"/>
<path fill="#FFFFFF" d="M159.792,150.05c0-9.596,0.002-19.192-0.001-28.789c-0.001-2.077-0.093-1.93,1.958-1.924
	c2,0.005,4,0.036,5.998-0.013c0.951-0.023,1.295,0.356,1.214,1.267c-0.042,0.476-0.006,0.958-0.006,1.438
	c0,18.712,0,37.425,0,56.137c0,0.56-0.026,1.121,0.003,1.679c0.04,0.749-0.352,0.958-1.022,0.955
	c-2.398-0.013-4.798-0.019-7.197,0.003c-0.729,0.007-0.99-0.312-0.951-1.006c0.031-0.558,0.004-1.119,0.004-1.679
	C159.792,168.762,159.792,159.406,159.792,150.05z"/>
<path fill="#0D84FF" d="M56.244,155.196c-0.1,0.208-0.256,0.57-0.44,0.917c-4.192,7.897-7.977,15.985-11.288,24.293
	c-0.592,1.486-0.633,1.495-2.268,0.914c-1.427-0.507-2.846-1.043-4.248-1.617c-1.582-0.647-1.625-0.697-0.951-2.255
	c2.122-4.902,4.224-9.814,6.455-14.667c1.533-3.335,3.261-6.582,4.913-9.862c0.996-1.979,1.005-1.973,2.874-0.98
	c1.409,0.749,2.82,1.492,4.229,2.241C55.868,154.366,56.256,154.525,56.244,155.196z"/>
<path fill="#0D84FF" d="M476.89,138.824c5.182,8.475,9.66,16.936,13.668,25.647c0.76,1.647,0.74,1.686-0.869,2.489
	c-1.285,0.64-2.598,1.234-3.914,1.802c-1.594,0.686-1.658,0.692-2.447-0.999c-3.145-6.736-6.605-13.303-10.277-19.763
	c-0.789-1.388-1.598-2.767-2.422-4.134c-0.4-0.666-0.375-1.12,0.375-1.546C472.939,141.219,474.837,140.05,476.89,138.824z"/>
<path fill="#0D84FF" d="M465.044,425.923c3.342-5.18,6.506-10.259,9.387-15.507c1.652-3.009,3.309-6.021,4.857-9.081
	c0.553-1.093,1.031-1.426,2.172-0.745c1.367,0.817,2.814,1.528,4.283,2.144c1.168,0.486,1.324,1.014,0.748,2.147
	c-2.242,4.417-4.604,8.769-7.121,13.03c-2.195,3.711-4.48,7.368-6.773,11.018c-0.881,1.402-0.953,1.382-2.361,0.457
	C468.507,428.257,466.8,427.097,465.044,425.923z"/>
<path fill="#0D84FF" d="M179.833,518.908c-0.762,1.901-1.558,3.799-2.275,5.723c-0.42,1.125-0.933,1.453-2.134,0.881
	c-2.515-1.198-5.126-2.192-7.664-3.348c-5.807-2.643-11.493-5.527-17.07-8.625c-1.667-0.926-1.665-0.932-0.692-2.684
	c0.773-1.396,1.573-2.775,2.317-4.185c0.425-0.807,0.867-0.938,1.699-0.467c8.121,4.606,16.537,8.608,25.152,12.199
	C179.375,518.492,179.54,518.683,179.833,518.908z"/>
<path fill="#0D84FF" d="M369.232,520.525c-1.051-2.189-1.988-4.199-2.977-6.185c-0.395-0.793-0.344-1.274,0.547-1.684
	c8.205-3.769,15.984-8.313,23.652-13.062c1.457-0.901,1.5-0.885,2.436,0.488c0.896,1.32,1.711,2.695,2.615,4.01
	c0.637,0.924,0.516,1.506-0.477,2.107c-5.117,3.104-10.207,6.248-15.518,9.02C376.138,516.984,372.746,518.714,369.232,520.525z"/>
<path fill="#0D84FF" d="M69.628,441.796c-2.796-3.643-5.271-7.258-7.681-10.918c-2.897-4.4-5.705-8.859-8.313-13.441
	c-0.899-1.58-0.885-1.602,0.68-2.53c1.235-0.733,2.462-1.49,3.741-2.14c1.63-0.828,1.455-1.19,2.507,0.649
	c2.221,3.883,4.613,7.658,7.03,11.422c2.332,3.633,4.811,7.158,7.325,10.662c1.117,1.555,1.138,1.566-0.434,2.748
	C72.954,439.402,71.392,440.511,69.628,441.796z"/>
<path fill="#0D84FF" d="M377.988,44.897c9.127,4.8,17.828,10.07,26.313,16.058c-1.383,2.004-2.701,3.878-3.979,5.777
	c-0.639,0.947-1.219,0.388-1.773-0.025c-2.762-2.044-5.688-3.833-8.582-5.671c-4.646-2.951-9.398-5.726-14.256-8.308
	c-1.457-0.774-1.574-1.145-0.713-2.527C376.003,48.583,376.679,46.767,377.988,44.897z"/>
<path fill="#0D84FF" d="M45.746,402.485c-2.454-4.338-4.308-8.66-6.156-12.975c-1.945-4.539-3.696-9.16-5.481-13.767
	c-0.762-1.968-0.598-1.694,1.096-2.323c1.493-0.554,3.01-1.048,4.485-1.646c0.958-0.39,1.409-0.157,1.773,0.82
	c1.252,3.36,2.546,6.706,3.906,10.023c2.056,5.017,4.297,9.951,6.673,14.826c0.723,1.484,0.712,1.512-0.778,2.277
	C49.491,400.633,47.701,401.509,45.746,402.485z"/>
<path fill="#0D84FF" d="M74.674,112.474c1.865,1.441,3.479,2.738,5.148,3.961c0.939,0.689,0.878,1.308,0.224,2.171
	c-2.31,3.05-4.583,6.129-6.841,9.219c-2.966,4.06-5.705,8.274-8.374,12.533c-1.065,1.7-1.079,1.682-2.86,0.599
	c-1.226-0.746-2.448-1.501-3.704-2.194c-1.068-0.59-1.191-1.18-0.496-2.257c2.855-4.424,5.689-8.86,8.755-13.145
	C69.123,119.732,71.759,116.138,74.674,112.474z"/>
<path fill="#0D84FF" d="M122.658,75.543c-1.402-1.771-2.711-3.472-4.076-5.128c-0.744-0.902-0.53-1.428,0.371-2.105
	c5.682-4.272,11.408-8.479,17.39-12.326c1.948-1.252,3.933-2.447,5.867-3.718c0.783-0.514,1.244-0.411,1.699,0.412
	c0.812,1.466,1.716,2.881,2.558,4.332c0.889,1.53,0.903,1.581-0.705,2.536c-5.567,3.308-10.884,6.988-16.125,10.781
	C127.316,72.006,125.044,73.756,122.658,75.543z"/>
<path fill="#0D84FF" d="M437.658,460.611c6.334-6.742,12.445-13.986,18.129-21.584c0.688-0.918,1.188-1.045,2.076-0.3
	c1.219,1.023,2.551,1.914,3.811,2.892c1.359,1.053,1.402,1.108,0.377,2.426c-2.545,3.27-5.078,6.551-7.734,9.727
	c-3.115,3.726-6.336,7.363-9.561,10.998c-1.592,1.793-1.672,1.783-3.273,0.117C440.21,463.568,439.037,462.162,437.658,460.611z"/>
<path fill="#0D84FF" d="M160.438,51.137c-0.183-0.075-0.429-0.115-0.586-0.255c-0.171-0.152-0.287-0.385-0.383-0.603
	c-0.868-1.967-2.204-3.702-2.859-5.773c1.501-1.5,3.533-2.064,5.354-2.979c6.851-3.444,13.914-6.41,21.087-9.114
	c1.596-0.603,1.625-0.587,2.227,0.941c0.526,1.336,0.98,2.7,1.502,4.037c0.779,1.994,0.552,1.919-1.116,2.577
	c-3.639,1.434-7.282,2.865-10.858,4.446c-4.306,1.904-8.544,3.96-12.81,5.954C161.489,50.605,160.993,50.862,160.438,51.137z"/>
<path fill="#0D84FF" d="M361.105,45.41c-3.359-1.363-6.59-2.677-9.824-3.986c-5.391-2.184-10.85-4.17-16.428-5.825
	c-1.875-0.557-1.861-0.577-1.299-2.437c0.416-1.371,0.791-2.755,1.219-4.123c0.5-1.604,0.602-1.679,2.176-1.163
	c3.557,1.165,7.113,2.334,10.645,3.574c5.109,1.795,10.131,3.817,15.074,6.034c1.57,0.705,1.59,0.728,0.883,2.393
	C362.779,41.694,361.957,43.491,361.105,45.41z"/>
<path fill="#0D84FF" d="M506.765,209.054c0.055,0.354-0.303,0.521-0.701,0.629c-1.998,0.542-3.996,1.086-6,1.611
	c-1.086,0.284-1.109-0.572-1.311-1.249c-1.146-3.898-2.219-7.821-3.479-11.684c-1.432-4.394-3.023-8.735-4.564-13.093
	c-0.92-2.6-1.207-2.214,1.551-3.284c1.041-0.404,2.066-0.845,3.115-1.225c1.887-0.684,1.898-0.673,2.658,1.304
	c0.629,1.638,1.271,3.271,1.85,4.927c2.418,6.923,4.682,13.895,6.586,20.978C506.552,208.276,506.636,208.583,506.765,209.054z"/>
<path fill="#0D84FF" d="M496.658,358.511c2.186,0.633,4.314,1.268,6.455,1.862c0.945,0.263,1.021,0.866,0.762,1.649
	c-0.25,0.756-0.516,1.508-0.76,2.268c-2.553,7.975-5.402,15.84-8.707,23.537c-0.85,1.979-0.854,1.997-2.711,1.234
	c-1.328-0.543-2.641-1.125-3.947-1.715c-1.525-0.688-1.572-0.727-0.877-2.275c2.092-4.658,3.896-9.43,5.609-14.234
	C493.927,366.791,495.246,362.698,496.658,358.511z"/>
<path fill="#0D84FF" d="M449.597,102.029c0.664,0.123,1.057,0.667,1.449,1.146c3.027,3.692,6.094,7.355,9.023,11.125
	c2.639,3.395,5.129,6.905,7.66,10.382c0.996,1.367,0.98,1.409-0.375,2.391c-1.16,0.84-2.43,1.546-3.523,2.463
	c-1.373,1.15-1.844,0.971-2.785-0.39c-3.666-5.306-7.537-10.469-11.67-15.428c-1.527-1.833-3.059-3.665-4.588-5.498
	c-1.043-1.252-1.041-1.385,0.178-2.463c1.191-1.055,2.398-2.09,3.594-3.142C448.861,102.35,449.148,102.077,449.597,102.029z"/>
<path fill="#0D84FF" d="M30.999,224.592c-2.398-0.108-4.583-0.947-6.862-1.238c-0.879-0.112-0.837-0.717-0.668-1.422
	c0.926-3.87,1.769-7.76,2.736-11.619c1.297-5.174,2.865-10.272,4.48-15.355c0.555-1.747,0.546-1.762,2.265-1.212
	c1.44,0.461,2.877,0.938,4.305,1.436c1.547,0.54,1.572,0.564,1.047,2.187c-2.233,6.895-4.188,13.868-5.869,20.916
	C31.936,220.366,31.482,222.458,30.999,224.592z"/>
<path fill="#0D84FF" d="M106.22,78.969c1.849,2.09,3.531,3.99,5.244,5.925c-3.155,2.958-6.212,5.758-9.195,8.636
	c-3.795,3.661-7.385,7.525-10.871,11.479c-0.871,0.988-1.388,0.976-2.301,0.145c-1.531-1.393-3.157-2.681-4.67-4.322
	C91.148,92.992,98.443,85.803,106.22,78.969z"/>
<path fill="#0D84FF" d="M326.916,535.921c-0.949,0.146-1.082-0.363-1.209-0.815c-0.424-1.537-0.816-3.084-1.234-4.621
	c-0.695-2.558-0.23-2.043,1.48-2.58c2.895-0.904,5.826-1.688,8.734-2.539c5.441-1.596,10.756-3.558,16.029-5.625
	c1.676-0.658,1.703-0.646,2.412,1.057c0.615,1.476,1.119,2.996,1.785,4.443c0.449,0.979,0.209,1.354-0.771,1.75
	c-4.965,1.994-9.998,3.799-15.096,5.414c-3.645,1.156-7.35,2.139-11.027,3.199C327.56,535.736,327.101,535.867,326.916,535.921z"/>
<path fill="#0D84FF" d="M28.99,328.285c0.539,0.147,0.605,0.795,0.728,1.39c0.632,3.042,1.256,6.088,1.89,9.129
	c1.171,5.622,2.607,11.178,4.24,16.684c0.571,1.926,0.564,1.924-1.423,2.531c-1.296,0.396-2.58,0.836-3.884,1.203
	c-1.757,0.494-1.795,0.48-2.259-1.195c-1.042-3.764-2.13-7.519-3.051-11.313c-1.259-5.188-2.438-10.395-3.351-15.658
	c-0.171-0.99-0.15-1.48,0.97-1.648C24.817,329.108,26.768,328.698,28.99,328.285z"/>
<path fill="#0D84FF" d="M135.988,504.66c-8.556-5.482-16.694-11.605-24.661-18.242c1.541-2.252,3.346-4.111,5.036-6.129
	c2.939,2.322,5.739,4.563,8.572,6.764c4.543,3.529,9.249,6.832,14.028,10.031c1.55,1.037,1.551,1.076,0.581,2.586
	c-0.993,1.545-2.023,3.066-3.047,4.59C136.412,504.384,136.25,504.458,135.988,504.66z"/>
<path fill="#0D84FF" d="M515.949,282.594c0.277,4.783-0.33,10.664-0.459,16.56c-0.023,1.074-0.238,1.654-1.467,1.535
	c-1.818-0.176-3.645-0.258-5.469-0.377c-0.957-0.063-1.111-0.685-1.115-1.494c-0.008-1.912,0.346-3.795,0.391-5.711
	c0.055-2.394-0.033-4.791,0.115-7.179c0.289-4.688-0.09-9.372-0.014-14.057c0.027-1.706,0.045-1.712,1.701-1.778
	c1.514-0.061,3.027-0.149,4.541-0.146c1.723,0.003,1.756,0.042,1.77,1.702C515.966,274.923,515.949,278.198,515.949,282.594z"/>
<path fill="#0D84FF" d="M416.595,70.192c0.332,0.246,0.723,0.519,1.096,0.812c4.881,3.84,9.531,7.945,14.074,12.172
	c2.275,2.116,4.475,4.313,6.736,6.44c0.721,0.678,0.852,1.2,0.049,1.938c-1.291,1.186-2.539,2.425-3.719,3.722
	c-0.791,0.873-1.301,0.756-2.1-0.038c-4.746-4.713-9.627-9.282-14.738-13.601c-1.883-1.592-3.777-3.172-5.697-4.718
	c-0.613-0.494-0.76-0.94-0.252-1.574c1.244-1.554,2.475-3.117,3.707-4.679C415.951,70.416,416.173,70.212,416.595,70.192z"/>
<path fill="#0D84FF" d="M426.933,471.353c2.096,1.621,3.613,3.679,5.461,5.646c-1.859,2.168-4.051,3.881-6.105,5.701
	c-5.135,4.551-10.459,8.883-16.002,12.938c-1.633,1.195-1.633,1.209-2.896-0.487c-0.855-1.152-1.613-2.394-2.566-3.459
	c-0.92-1.031-0.58-1.55,0.385-2.255c5.35-3.913,10.49-8.092,15.465-12.473C422.765,475.125,424.826,473.244,426.933,471.353z"/>
<path fill="#0D84FF" d="M222.373,532.148c-0.411,2.157-0.846,3.862-1.03,5.596c-0.152,1.428-0.827,1.387-1.933,1.168
	c-4.449-0.881-8.874-1.877-13.248-3.061c-4.529-1.226-9.015-2.609-13.503-3.978c-1.619-0.492-1.611-0.565-1.118-2.117
	c0.482-1.52,1.051-3.014,1.481-4.545c0.348-1.237,0.939-1.34,2.1-0.951c4.755,1.591,9.575,2.966,14.436,4.214
	c3.777,0.969,7.58,1.813,11.386,2.646C221.823,531.313,222.527,531.46,222.373,532.148z"/>
<path fill="#0D84FF" d="M506.076,314.794c2.201,0.291,4.164,0.645,6.141,0.779c1.342,0.092,1.584,0.644,1.389,1.842
	c-0.658,4.001-1.15,8.031-1.885,12.018c-0.893,4.854-1.957,9.676-2.967,14.506c-0.145,0.69-0.398,1.358-0.623,2.104
	c-2.391-0.161-4.559-0.974-6.789-1.504c-0.605-0.146-0.768-0.501-0.662-1.038c0.096-0.468,0.254-0.922,0.355-1.389
	c1.789-8.327,3.586-16.652,4.531-25.133C505.642,316.285,505.882,315.608,506.076,314.794z"/>
<path fill="#0D84FF" d="M228.281,20.393c0.651-0.069,1.027,0.132,1.131,0.866c0.269,1.887,0.598,3.765,0.925,5.643
	c0.16,0.918-0.226,1.215-1.119,1.362c-2.822,0.461-5.635,0.987-8.434,1.571c-5.917,1.236-11.802,2.602-17.593,4.353
	c-1.908,0.577-1.933,0.533-2.474-1.286c-0.431-1.448-0.748-2.936-1.271-4.348c-0.465-1.256-0.034-1.618,1.155-1.956
	c4.822-1.37,9.666-2.648,14.566-3.697c3.885-0.833,7.794-1.551,11.694-2.312C227.33,20.497,227.808,20.457,228.281,20.393z"/>
<path fill="#0D84FF" d="M320.693,23.602c-0.51,2.254-1.027,4.417-1.477,6.592c-0.15,0.729-0.563,0.934-1.188,0.815
	c-1.174-0.222-2.338-0.497-3.508-0.748c-7.559-1.625-15.182-2.839-22.867-3.662c-2.148-0.23-2.453-0.476-2.07-2.476
	c0.258-1.345,0.412-2.694,0.385-4.036c-0.026-1.351,0.547-1.672,1.728-1.521c2.604,0.335,5.218,0.61,7.819,0.972
	c6.393,0.891,12.732,2.08,19.045,3.419C319.248,23.105,319.914,23.364,320.693,23.602z"/>
<path fill="#0D84FF" d="M261.079,543.554c-7.863-0.254-15.708-0.705-23.521-1.7c-1.345-0.171-1.587-0.693-1.455-1.789
	c0.209-1.736,0.447-3.47,0.624-5.209c0.113-1.113,0.927-0.937,1.6-0.896c2.221,0.135,4.429,0.445,6.641,0.672
	c5.705,0.588,11.411,0.938,17.145,0.906c4.719-0.027,4.719-0.004,4.719,4.531c0,3.483,0,3.483-3.598,3.483
	C262.515,543.554,261.797,543.554,261.079,543.554z"/>
<path fill="#0D84FF" d="M105.552,470.5c-1.886,2-3.627,3.844-5.489,5.816c-7.576-7.048-14.453-14.564-21.085-22.515
	c1.738-2,3.969-3.272,5.908-5.256C91.531,456.089,98.029,463.64,105.552,470.5z"/>
<path fill="#0D84FF" d="M514.748,254.504c-2.26,0.978-4.643,0.411-6.875,0.955c-0.916,0.223-0.967-0.604-1.043-1.231
	c-0.439-3.622-0.857-7.247-1.301-10.868c-0.656-5.367-1.648-10.678-2.652-15.988c-0.295-1.558-0.252-1.633,1.188-1.942
	c1.553-0.334,3.119-0.604,4.672-0.959c1.174-0.269,1.764,0.081,1.969,1.329c0.746,4.546,1.678,9.063,2.326,13.622
	C513.734,244.372,514.494,249.322,514.748,254.504z"/>
<path fill="#0D84FF" d="M17.75,268.474c-0.303-4.573,0.287-9.081,0.652-13.582c0.404-4.982,1.18-9.935,1.791-14.9
	c0.245-1.994,0.242-2.003,2.296-1.731c1.499,0.198,2.991,0.457,4.493,0.622c1.029,0.113,1.425,0.655,1.244,1.611
	c-1.097,5.784-1.484,11.656-2.149,17.493c-0.333,2.919-0.397,5.871-0.524,8.811c-0.092,2.153-0.05,2.135-2.102,2.202
	C21.544,269.061,19.666,268.901,17.75,268.474z"/>
<path fill="#0D84FF" d="M280.41,535.472c2.559-0.768,5.377-0.557,8.127-0.828c6.568-0.647,13.094-1.549,19.582-2.721
	c1.225-0.221,1.773-0.104,1.961,1.191c0.227,1.569,0.611,3.116,0.893,4.682c0.271,1.506,0.172,1.674-1.27,1.93
	c-6.021,1.068-12.063,1.992-18.158,2.574c-3.24,0.31-6.479,0.609-9.723,0.855c-1.06,0.08-1.447-0.218-1.426-1.271
	C280.439,539.83,280.41,537.773,280.41,535.472z"/>
<path fill="#0D84FF" d="M27.191,313.526c-2.132,0.766-4.393,0.619-6.554,1.057c-1.042,0.211-1.364-0.372-1.448-1.325
	c-0.279-3.164-0.662-6.319-0.916-9.483c-0.457-5.709-0.927-11.418-0.907-17.15c0.001-0.398,0.033-0.801-0.005-1.196
	c-0.101-1.073,0.242-1.636,1.446-1.586c1.673,0.068,3.353,0.056,5.028,0.004c1.149-0.034,1.553,0.489,1.563,1.577
	c0.025,2.632-0.004,5.262,0.113,7.896C25.81,300.056,26.466,306.762,27.191,313.526z"/>
<path fill="#0D84FF" d="M262.446,17.457c4.338,0,7.777,0.034,11.216-0.019c1.149-0.018,1.571,0.361,1.471,1.528
	c-0.125,1.43-0.11,2.872-0.139,4.309c-0.041,2.008-0.033,2.01-2.173,2.032c-3.672,0.037-7.341-0.125-11.018-0.034
	c-4.783,0.118-9.553,0.333-14.311,0.822c-0.555,0.057-1.119,0.025-1.676,0.068c-0.587,0.045-0.879-0.196-0.935-0.785
	c-0.189-1.981-0.383-3.962-0.597-5.94c-0.077-0.709,0.316-1.025,0.907-1.174c0.382-0.096,0.783-0.146,1.177-0.167
	C252.023,17.797,257.67,17.239,262.446,17.457z"/>
<path fill="#FFFFFF" d="M195.658,317.67c0.908-0.853,1.729-1.681,3.06-1.729c2.458-0.088,3.979,1.07,4.264,3.521
	c0.092,0.79,0.049,1.598,0.05,2.396c0.003,3.759,0.002,7.518,0,11.275c0,0.561,0.027,1.124-0.035,1.678
	c-0.372,3.321-3.332,4.713-6.128,2.888c-0.248-0.162-0.445-0.4-0.653-0.593c-0.76,0.391-0.455,1.021-0.459,1.517
	c-0.03,2.959-0.006,5.918-0.023,8.876c-0.003,0.523,0.234,1.243-0.469,1.453c-0.839,0.251-1.739,0.249-2.585-0.043
	c-0.14-0.049-0.215-0.398-0.245-0.62c-0.043-0.313-0.021-0.64-0.021-0.958c0-9.916-0.004-19.833,0.012-29.749
	c0-0.519-0.304-1.259,0.326-1.512c0.732-0.294,1.601-0.28,2.346,0.022C195.657,316.323,195.238,317.101,195.658,317.67z
	 M199.658,326.907c-0.008,0-0.016,0-0.023,0c0-2.159,0.044-4.319-0.019-6.477c-0.032-1.088-0.669-1.787-1.812-1.847
	c-1.042-0.054-1.602,0.59-1.908,1.497c-0.101,0.3-0.175,0.626-0.176,0.939c-0.011,4.078-0.064,8.156,0.022,12.232
	c0.032,1.539,0.787,2.16,2.036,2.135c1.268-0.025,1.822-0.621,1.866-2.244C199.7,331.065,199.658,328.985,199.658,326.907z"/>
<path fill="#FFFFFF" d="M300.804,317.667c0.885-0.88,1.721-1.68,3.051-1.727c2.455-0.084,3.953,1.084,4.258,3.535
	c0.049,0.396,0.039,0.799,0.039,1.198c0.002,4.56,0.08,9.118-0.029,13.675c-0.09,3.666-3.18,5.285-6.146,3.34
	c-0.242-0.16-0.438-0.396-0.785-0.719c-0.533,0.846-0.313,1.647-0.318,2.389c-0.027,2.719,0.012,5.438-0.02,8.156
	c-0.018,1.551-0.057,1.549-1.662,1.563c-1.605,0.014-1.646,0.015-1.652-1.524c-0.018-6.396-0.006-12.795-0.006-19.191
	c0-3.52-0.031-7.037,0.026-10.557c0.011-0.649-0.575-1.683,0.778-1.865C299.88,315.731,300.292,315.972,300.804,317.667z
	 M304.783,326.981c0-0.72,0.002-1.438-0.002-2.158c-0.004-1.439,0.029-2.881-0.031-4.317c-0.047-1.078-0.605-1.831-1.752-1.917
	c-1.154-0.087-1.773,0.621-2.01,1.654c-0.143,0.615-0.17,1.266-0.178,1.9c-0.023,1.761-0.01,3.52-0.01,5.278
	c0.002,1.761-0.041,3.521,0.014,5.277c0.061,1.931,0.662,2.679,2.008,2.688c1.395,0.012,1.922-0.671,1.953-2.647
	C304.804,330.821,304.781,328.901,304.783,326.981z"/>
<path fill="#FFFFFF" d="M75.873,322.735c0-4.549,0.042-9.101-0.027-13.649c-0.019-1.255,0.359-1.679,1.613-1.61
	c1.751,0.097,3.513-0.024,5.267,0.043c2.468,0.096,3.787,1.133,3.979,3.584c0.297,3.815,0.311,7.664-0.005,11.479
	c-0.208,2.509-1.559,3.464-4.242,3.582c-3.041,0.134-3.041,0.134-3.041,3.25c0,2.396,0.016,4.79-0.006,7.185
	c-0.015,1.641-0.039,1.641-1.754,1.642c-0.24,0-0.48-0.021-0.718,0.001c-0.85,0.078-1.086-0.338-1.076-1.135
	c0.033-2.635,0.012-5.27,0.012-7.902C75.872,327.046,75.873,324.892,75.873,322.735z M83.5,316.711c0-1.274,0-2.552,0-3.828
	c0-0.159,0.005-0.319-0.013-0.478c-0.185-1.541-2.294-2.57-3.648-1.787c-0.313,0.182-0.414,0.471-0.415,0.793
	c-0.006,3.589-0.003,7.177-0.005,10.766c0,0.438,0.148,0.754,0.593,0.914c1.784,0.645,3.391-0.395,3.474-2.313
	C83.544,319.424,83.496,318.067,83.5,316.711z"/>
<path fill="#FFFFFF" d="M374.82,330.726c3.889-0.383,3.363-0.453,3.293,2.899c-0.037,1.817-0.613,3.524-2.49,4.3
	c-2.092,0.862-4.223,0.891-6.199-0.331c-1.16-0.716-1.729-1.915-1.742-3.25c-0.041-4.868-0.094-9.737,0.025-14.604
	c0.055-2.165,1.42-3.464,3.543-3.948c4.072-0.932,6.775,1.124,6.896,5.289c0.053,1.835-0.029,3.673,0.025,5.507
	c0.031,1.024-0.328,1.44-1.377,1.403c-1.594-0.057-3.193,0.015-4.787-0.023c-0.809-0.019-1.16,0.256-1.133,1.1
	c0.047,1.436-0.039,2.877,0.041,4.309c0.084,1.484,0.59,1.973,1.822,2.016c1.295,0.045,1.945-0.564,2.068-2.063
	C374.878,332.46,374.82,331.583,374.82,330.726z M374.832,322.748c-0.01,0-0.02,0-0.031,0c0-0.72,0.074-1.447-0.016-2.154
	c-0.16-1.271-0.941-1.975-2.057-1.876c-1.092,0.098-1.775,0.69-1.799,1.85c-0.031,1.356-0.031,2.716-0.033,4.072
	c0,0.433,0.176,0.848,0.635,0.857c1.02,0.021,2.15,0.377,3.025-0.232c0.613-0.427,0.191-1.344,0.273-2.037
	C374.847,323.069,374.832,322.908,374.832,322.748z"/>
<path fill="#FFFFFF" d="M275.207,336.624c-1.121,1.408-2.453,2.008-4.072,1.863c-1.755-0.156-2.696-0.852-2.982-2.577
	c-0.391-2.368-0.35-4.772,0-7.153c0.188-1.279,0.929-2.199,2.113-2.712c0.803-0.346,1.658-0.567,2.459-0.919
	c0.848-0.372,2.055-0.311,2.389-1.37c0.41-1.304,0.334-2.692,0.029-4.024c-0.195-0.849-0.986-1.01-1.714-1.01
	c-0.819-0.002-1.644,0.188-1.903,1.125c-0.146,0.525-0.138,1.101-0.168,1.654c-0.087,1.563-0.938,2.129-2.461,1.669
	c-0.492-0.147-0.591-0.487-0.59-0.894c0.001-1.117-0.084-2.252,0.076-3.351c0.318-2.182,2.252-3.305,5.393-3.267
	c2.932,0.035,4.452,1.068,4.803,3.291c0.073,0.472,0.09,0.955,0.09,1.434c0.006,5.436,0.014,10.871-0.002,16.309
	c-0.004,1.699-0.99,2.359-2.576,1.802C275.235,338.192,275.742,337.362,275.207,336.624z M275.384,326.78
	c-4.084,0.923-4.139,0.984-4.141,4.613c0,0.715,0.002,1.429,0.004,2.143c0.002,0.855,0.205,1.609,1.181,1.796
	c0.985,0.188,1.903,0.065,2.534-0.854c0.377-0.549,0.434-1.168,0.429-1.813C275.375,330.76,275.384,328.858,275.384,326.78z"/>
<path fill="#FFFFFF" d="M101.632,336.741c-1.115,1.298-2.491,1.97-4.22,1.722c-1.697-0.241-2.709-1.065-2.814-2.741
	c-0.139-2.228-0.107-4.472-0.008-6.701c0.07-1.599,1.107-2.612,2.546-3.176c1.112-0.435,2.265-0.765,3.39-1.166
	c0.832-0.296,1.311-0.849,1.263-1.799c-0.04-0.796,0.033-1.6-0.021-2.395c-0.083-1.198-0.65-1.729-1.788-1.775
	c-1.239-0.05-1.941,0.538-2.072,1.762c-0.034,0.315-0.002,0.639-0.015,0.957c-0.059,1.563-1.205,2.291-2.639,1.702
	c-0.343-0.141-0.511-0.386-0.514-0.714c-0.017-1.434-0.182-2.879,0.327-4.271c0.227-0.621,0.635-1.099,1.161-1.484
	c1.713-1.258,5.528-1.362,7.328-0.204c1.292,0.832,1.602,2.086,1.595,3.521c-0.02,4.153-0.006,8.309-0.006,12.461
	c0,1.438,0.033,2.877-0.014,4.313c-0.023,0.707,0.388,1.75-0.944,1.755c-0.971,0.003-2.212,0.404-2.236-1.287
	C101.949,337.089,101.786,336.963,101.632,336.741z M101.81,326.586c-1.129,0.396-1.947,0.681-2.762,0.97
	c-0.751,0.269-1.2,0.801-1.217,1.6c-0.036,1.595-0.06,3.191-0.023,4.785c0.022,0.943,0.58,1.41,1.542,1.455
	c1.483,0.069,2.392-0.678,2.444-2.262C101.861,331.065,101.81,328.992,101.81,326.586z"/>
<path fill="#FFFFFF" d="M154.417,326.601c0,2.6,0.076,4.678-0.016,6.748c-0.198,4.494-4.449,6.713-8.421,4.451
	c-1.307-0.744-1.955-1.929-1.97-3.348c-0.053-4.946-0.096-9.896,0.025-14.842c0.051-2.108,1.311-3.307,3.375-3.793
	c1.023-0.239,2.068-0.234,3.095-0.069c2.262,0.362,3.357,1.44,3.734,3.728C154.658,322.012,154.309,324.576,154.417,326.601z
	 M147.211,326.915c0.003,0,0.006,0,0.009,0c0,2.15-0.058,4.304,0.02,6.452c0.053,1.478,0.594,1.983,1.804,2.028
	c1.293,0.047,2.046-0.563,2.072-2.054c0.071-4.142,0.066-8.286,0.006-12.428c-0.021-1.493-0.771-2.192-1.98-2.194
	c-1.21-0.001-1.862,0.674-1.915,2.221C147.161,322.929,147.211,324.922,147.211,326.915z"/>
<path fill="#FFFFFF" d="M316.414,326.969c0.002-1.993-0.051-3.989,0.014-5.981c0.146-4.508,4.338-6.851,8.314-4.672
	c1.289,0.707,2.051,1.851,2.121,3.271c0.125,2.467,0.068,4.941,0.102,7.415c0.008,0.717-0.35,0.981-1.031,0.978
	c-1.596-0.015-3.191,0.025-4.785-0.012c-0.934-0.021-1.516,0.148-1.441,1.297c0.088,1.352-0.031,2.715,0.041,4.066
	c0.08,1.499,0.74,2.105,2.049,2.063c1.23-0.041,1.699-0.545,1.826-2.011c0.035-0.396,0.006-0.797,0.02-1.194
	c0.061-1.651,0.066-1.558,1.781-1.67c1.334-0.088,1.695,0.459,1.547,1.64c-0.027,0.235-0.004,0.479-0.006,0.718
	c-0.041,4.604-3.521,6.938-7.799,5.213c-1.656-0.668-2.492-2.023-2.619-3.707c-0.156-2.063-0.1-4.142-0.131-6.214
	C316.408,327.767,316.412,327.369,316.414,326.969z M323.64,322.786c-0.01,0-0.02,0-0.027,0c0-0.721,0.055-1.444-0.014-2.157
	c-0.123-1.315-0.813-1.978-1.969-1.903c-1.102,0.068-1.811,0.668-1.867,1.793c-0.066,1.355-0.027,2.717-0.029,4.075
	c-0.002,0.421,0.096,0.849,0.584,0.884c1.02,0.072,2.143,0.371,3.027-0.184c0.639-0.396,0.207-1.336,0.291-2.029
	C323.656,323.106,323.64,322.944,323.64,322.786z"/>
<path fill="#FFFFFF" d="M445.966,327.024c-0.002,2.234,0.059,4.473-0.018,6.705c-0.104,3.217-1.707,4.696-5.029,4.783
	c-3.285,0.084-5.242-1.343-5.369-4.438c-0.188-4.622-0.188-9.264-0.014-13.887c0.125-3.258,2.01-4.633,5.512-4.525
	c3.256,0.098,4.814,1.615,4.906,4.895C446.015,322.711,445.966,324.868,445.966,327.024z M438.765,327.151c0.002,0,0.004,0,0.008,0
	c0,2.074-0.059,4.147,0.02,6.219c0.055,1.47,0.783,2.088,2.084,2.023c1.207-0.062,1.742-0.574,1.771-2.057
	c0.063-3.188,0.031-6.377,0.029-9.564c0-1.116,0.041-2.238-0.061-3.347c-0.105-1.138-0.836-1.751-1.896-1.704
	c-0.967,0.043-1.688,0.485-1.879,1.5c-0.088,0.465-0.072,0.952-0.074,1.43C438.761,323.485,438.765,325.317,438.765,327.151z"/>
<path fill="#FFFFFF" d="M221.805,326.991c0,2.234,0.021,4.472-0.007,6.705c-0.022,1.869-0.546,3.585-2.443,4.285
	c-2.25,0.83-4.561,0.901-6.597-0.666c-1.096-0.846-1.392-2.172-1.41-3.443c-0.064-4.55-0.15-9.105,0.024-13.648
	c0.125-3.269,1.993-4.654,5.483-4.561c3.268,0.088,4.81,1.602,4.951,4.861c0.007,0.16,0.007,0.318,0.007,0.479
	c0,1.996,0,3.991,0,5.987C221.811,326.991,221.808,326.991,221.805,326.991z M214.608,326.923c0.001,0,0.003,0,0.004,0
	c0,2.152-0.059,4.307,0.021,6.456c0.054,1.465,0.793,2.084,2.094,2.015c1.2-0.064,1.742-0.584,1.761-2.065
	c0.053-4.146,0.051-8.291,0.003-12.437c-0.018-1.523-0.71-2.195-1.942-2.178c-1.216,0.02-1.881,0.712-1.927,2.23
	C214.562,322.937,214.608,324.931,214.608,326.923z"/>
<path fill="#FFFFFF" d="M458.046,317.538c0.793-0.723,1.635-1.525,2.93-1.588c2.445-0.118,4.025,1.094,4.18,3.553
	c0.117,1.912,0.047,3.836,0.049,5.754c0.006,3.838-0.074,7.678,0.041,11.514c0.043,1.457-0.637,1.513-1.713,1.484
	c-1.014-0.025-1.809,0.096-1.771-1.454c0.113-4.875,0.043-9.754,0.039-14.631c0-0.64,0.006-1.28-0.039-1.917
	c-0.061-0.908-0.563-1.49-1.459-1.645c-0.885-0.153-1.516,0.24-1.975,1.02c-0.475,0.809-0.465,1.676-0.465,2.557
	c0.002,4.717,0.012,9.434-0.012,14.15c-0.002,0.605,0.334,1.52-0.328,1.751c-0.787,0.276-1.76,0.241-2.602,0.079
	c-0.703-0.137-0.416-0.93-0.418-1.439c-0.02-4.479-0.012-8.955-0.012-13.434c0-1.918-0.025-3.838,0.014-5.756
	c0.014-0.631-0.352-1.486,0.842-1.607c1.453-0.146,1.881,0.061,2.328,1.413C457.693,317.392,457.804,317.413,458.046,317.538z"/>
<path fill="#FFFFFF" d="M166.042,317.815c1.075-1.357,2.228-1.938,3.691-1.866c2.005,0.099,3.267,1.196,3.564,3.19
	c0.047,0.315,0.059,0.639,0.059,0.957c0.005,5.598-0.038,11.194,0.042,16.791c0.019,1.321-0.576,1.432-1.583,1.358
	c-0.908-0.065-1.906,0.286-1.88-1.323c0.081-4.956,0.031-9.914,0.027-14.871c0-0.639,0.003-1.281-0.05-1.917
	c-0.068-0.811-0.566-1.329-1.327-1.509c-0.864-0.202-1.547,0.125-2.036,0.895c-0.551,0.864-0.525,1.817-0.525,2.779
	c0.003,4.717,0.013,9.436-0.015,14.151c-0.003,0.58,0.364,1.464-0.432,1.67c-0.818,0.213-1.739,0.106-2.604,0.022
	c-0.298-0.027-0.322-0.49-0.319-0.817c0.006-0.88,0-1.761,0-2.64c0-5.676-0.012-11.354,0.015-17.029
	c0.003-0.689-0.422-1.665,0.957-1.734C165.177,315.844,165.472,315.965,166.042,317.815z"/>
<path fill="#FFFFFF" d="M393.691,330.134c0.949-0.15,1.883-0.199,2.883,0.051c0.174,1.461,0.162,2.896-0.004,4.323
	c-0.268,2.296-1.336,3.388-3.6,3.839c-0.959,0.191-1.896,0.195-2.855,0.004c-2.307-0.466-3.639-1.701-3.697-4.037
	c-0.119-4.795-0.139-9.6-0.004-14.395c0.08-2.784,1.988-4.23,5.063-4.259c3.16-0.029,4.811,1.297,5.109,4.159
	c0.084,0.791,0.086,1.597,0.08,2.396c-0.01,1.739-0.863,2.334-2.547,1.847c-0.631-0.184-0.586-0.649-0.602-1.127
	c-0.027-0.877,0.033-1.771-0.113-2.629c-0.189-1.095-1.039-1.688-2.053-1.568c-0.992,0.117-1.639,0.645-1.686,1.693
	c-0.051,1.118-0.063,2.238-0.064,3.357c-0.004,3.119-0.035,6.24,0.023,9.359c0.031,1.649,0.58,2.215,1.855,2.244
	c1.266,0.029,1.854-0.584,2.021-2.143C393.613,332.231,393.351,331.187,393.691,330.134z"/>
<path fill="#FFFFFF" d="M412.23,330.194c1.092-0.252,1.959-0.197,3.064-0.066c0.18,1.7,0.223,3.428-0.123,5.127
	c-0.309,1.521-1.262,2.584-2.813,2.947c-0.773,0.182-1.584,0.311-2.371,0.288c-3.236-0.093-4.857-1.677-4.91-4.933
	c-0.068-4.317-0.02-8.639-0.016-12.959c0-0.16,0.008-0.32,0.02-0.479c0.238-2.939,1.977-4.443,5.152-4.459
	c3.242-0.018,4.846,1.367,5.102,4.435c0.061,0.716,0.063,1.438,0.053,2.158c-0.02,1.847-0.082,1.823-1.861,1.845
	c-1.121,0.014-1.352-0.478-1.305-1.44c0.039-0.794,0.029-1.608-0.102-2.39c-0.168-0.979-0.842-1.521-1.85-1.548
	c-1.035-0.028-1.701,0.604-1.896,1.749c-0.025,0.156-0.041,0.317-0.041,0.477c-0.002,4.08-0.039,8.16,0.016,12.24
	c0.021,1.629,0.607,2.198,1.891,2.209c1.254,0.008,1.855-0.608,1.977-2.183C412.287,332.261,412.23,331.3,412.23,330.194z"/>
<path fill="#FFFFFF" d="M120.531,332.366c0.404-1.773-0.5-3.108-2.305-3.955c-0.216-0.102-0.401-0.273-0.62-0.361
	c-4.047-1.63-4.574-4.936-4.138-8.691c0.205-1.77,1.145-2.909,2.889-3.412c1.264-0.364,2.532-0.399,3.791-0.137
	c2.727,0.567,4.469,3.664,3.571,6.313c-0.377,1.109-1.357,0.495-2.069,0.607c-0.621,0.098-1.112-0.107-1.112-0.873
	c0-0.479,0.019-0.959-0.012-1.438c-0.1-1.583-0.572-2.051-2.007-2.023c-1.414,0.025-1.668,0.48-1.894,2.138
	c-0.33,2.416,0.558,3.985,2.785,4.896c0.661,0.271,1.277,0.653,1.901,1.008c1.75,0.987,2.676,2.441,2.588,4.506
	c-0.053,1.274,0.047,2.562-0.055,3.832c-0.156,1.945-1.158,3.031-3.061,3.475c-0.542,0.126-1.1,0.223-1.655,0.255
	c-4.369,0.257-6.563-2.243-5.857-6.569c0.188-1.152,0.992-0.81,1.635-0.834c0.681-0.025,1.535-0.222,1.565,0.912
	c0.015,0.56-0.016,1.119,0.02,1.678c0.105,1.647,0.68,2.191,2.191,2.115c1.384-0.07,1.775-0.533,1.847-2.203
	C120.543,333.281,120.531,332.96,120.531,332.366z"/>
<path fill="#FFFFFF" d="M359.433,318.838c-2.908,0.238-2.908,0.238-2.908,3.228c0,4.715-0.006,9.428,0.002,14.143
	c0.002,2.161,0.146,2.037-2.113,2.027c-0.314-0.002-0.629-0.029-0.939-0.045c-0.516-0.586-0.295-1.25-0.299-1.849
	c-0.02-5.192-0.016-10.386-0.008-15.579c0.002-0.979,0.156-1.951-1.393-1.845c-0.971,0.065-0.762-0.825-0.766-1.42
	c-0.004-0.677-0.24-1.567,0.912-1.543c1.131,0.026,1.285-0.621,1.256-1.544c-0.037-1.117-0.055-2.244,0.059-3.354
	c0.285-2.785,2.99-4.637,5.736-4.039c0.686,0.148,0.676,0.611,0.613,1.063c-0.088,0.646,0.406,1.814-0.488,1.841
	c-2.838,0.087-2.607,1.97-2.578,3.851c0.031,1.981,0.014,2.027,2.01,2.146c0.775,0.046,1.234,0.205,1.16,1.067
	C359.636,317.608,359.849,318.269,359.433,318.838z"/>
<path fill="#FFFFFF" d="M309.308,223.606c-2.805,0-5.428-0.01-8.053,0.006c-0.785,0.005-1.148-0.284-1.145-1.117
	c0.025-3.194,0.029-6.388-0.002-9.582c-0.01-0.849,0.363-1.107,1.141-1.101c2.314,0.019,4.631,0.028,6.945-0.007
	c0.813-0.012,1.135,0.263,1.127,1.101C309.292,216.409,309.308,219.913,309.308,223.606z"/>
<path fill="#FFFFFF" d="M168.953,106.636c0,1.597-0.031,3.194,0.013,4.79c0.024,0.868-0.194,1.332-1.178,1.314
	c-2.314-0.042-4.63-0.042-6.945-0.001c-0.878,0.016-1.067-0.379-1.061-1.156c0.026-3.193,0.03-6.387,0-9.58
	c-0.008-0.852,0.355-1.085,1.143-1.074c2.314,0.031,4.63,0.027,6.945,0.004c0.83-0.009,1.112,0.353,1.092,1.153
	C168.925,103.602,168.952,105.12,168.953,106.636z"/>
<path fill="#FFFFFF" d="M260.104,322.851c0,4.553,0.014,9.104-0.019,13.657c-0.004,0.565,0.383,1.417-0.479,1.64
	c-0.831,0.215-1.735,0.197-2.586-0.035c-0.137-0.037-0.241-0.385-0.266-0.6c-0.044-0.396-0.022-0.798-0.022-1.197
	c0-9.105-0.003-18.211,0.002-27.317c0.001-1.84,1.098-2.567,2.839-1.935c0.75,0.272,0.517,0.899,0.521,1.408
	c0.019,3.114,0.01,6.229,0.01,9.346C260.104,319.495,260.104,321.172,260.104,322.851z"/>
<path fill="#FFFFFF" d="M233.649,317.928c0.723-1.013,1.535-1.95,2.991-1.991c1.117-0.029,1.663,0.279,1.503,1.475
	c-0.061,0.457-0.01,0.93-0.01,1.313c-0.645,0.488-1.193,0.113-1.723,0.144c-1.389,0.08-2.196,0.821-2.602,2.083
	c-0.345,1.072-0.443,2.172-0.436,3.302c0.027,4.229,0.015,8.459,0.005,12.688c-0.001,0.449,0.18,1.151-0.394,1.226
	c-0.912,0.116-1.909,0.332-2.771-0.192c-0.372-0.227-0.194-0.738-0.194-1.123c-0.008-6.543,0.008-13.088-0.022-19.631
	c-0.004-0.91,0.272-1.402,1.205-1.264c0.798,0.12,2.088-0.589,2.061,1.114C233.259,317.337,233.165,317.683,233.649,317.928z"/>
<path fill="#FFFFFF" d="M338.855,317.89c0.939-0.884,1.584-1.83,2.852-1.923c1.523-0.11,1.793,0.063,1.836,1.604
	c0.012,0.389,0.002,0.777,0.002,1.096c-0.254,0.143-0.387,0.281-0.514,0.278c-3.115-0.087-4.133,0.821-4.188,4.054
	c-0.068,4.313-0.016,8.627-0.02,12.939c-0.002,2.381-0.26,2.584-2.551,2.315c-0.619-0.073-0.824-0.315-0.82-0.889
	c0.012-1.357,0.002-2.716,0.002-4.073c0-5.111-0.025-10.225,0.027-15.335c0.008-0.715-0.641-1.862,0.883-2.021
	C338.039,315.76,338.289,315.901,338.855,317.89z"/>
<path fill="#FFFFFF" d="M423.771,316.146c0.486-0.119,0.635-0.186,0.787-0.188c2.582-0.075,2.584-0.073,2.586,2.491
	c0,6.053,0.008,12.105-0.016,18.156c-0.002,0.56,0.377,1.422-0.568,1.563c-0.838,0.127-1.76,0.31-2.547-0.121
	c-0.463-0.252-0.23-0.876-0.232-1.331c-0.014-4.857-0.01-9.716-0.01-14.574C423.771,320.157,423.771,318.171,423.771,316.146z"/>
<path fill="#FFFFFF" d="M132.093,327.171c0-3.186-0.013-6.371,0.005-9.557c0.01-1.676,0.035-1.676,1.741-1.674
	c1.573,0,1.614,0,1.618,1.539c0.017,6.451-0.053,12.902,0.05,19.353c0.025,1.56-0.784,1.374-1.76,1.422
	c-1.128,0.056-1.742-0.122-1.691-1.528C132.172,333.545,132.093,330.356,132.093,327.171z"/>
<path fill="#FFFFFF" d="M279.455,382.853c0.769-2.931,1.498-5.871,2.767-8.643c1.208-2.641,2.614-5.134,5.135-6.771
	c0.498-0.324,0.704-0.857,1.08-1.261c1.821-1.952,4.131-2.635,6.724-2.45c0.719,0.051,1.457,0.34,1.704,1.117
	c0.253,0.793-0.235,1.407-0.801,1.857c-2.03,1.613-4.36,2.568-6.89,1.719c-1.178-0.396-1.775-0.111-2.489,0.569
	c-1.524,1.454-2.574,3.233-3.519,5.097c-1.412,2.787-2.192,5.805-3.248,8.712C279.746,382.658,279.589,382.679,279.455,382.853z"/>
<path fill="#FFFFFF" d="M269.142,382.24c-0.943-2.792-1.842-5.601-3.17-8.247c-0.646-1.287-1.381-2.512-2.214-3.688
	c-0.571-0.808-1.146-1.056-2.2-0.818c-2.583,0.58-4.914-0.206-6.833-1.977c-1.275-1.176-0.896-2.322,0.782-2.773
	c2.082-0.559,5.798,0.875,7.134,2.557c3.486,4.383,5.719,9.344,7.05,14.738C269.387,381.79,269.222,381.905,269.142,382.24z"/>
<path fill="#FFFFFF" d="M151.419,307.353c0.463,0.5,0.713,0.813,1.004,1.078c0.64,0.584,0.746,1.09,0.024,1.748
	c-1.412,1.289-2.768,2.641-4.119,3.994c-0.479,0.479-0.85,0.596-1.366,0.039c-0.439-0.473-0.61-0.826-0.119-1.396
	C148.35,311.071,149.809,309.284,151.419,307.353z"/>
<path fill="#FFFFFF" d="M443.13,307.242c0.365,0.495,0.518,0.789,0.744,0.996c0.807,0.729,0.873,1.339-0.018,2.122
	c-1.365,1.203-2.633,2.52-3.922,3.807c-0.467,0.467-0.854,0.611-1.375,0.054c-0.447-0.477-0.58-0.87-0.117-1.411
	C439.927,311.069,441.392,309.312,443.13,307.242z"/>
<path fill="#FFFFFF" d="M423.771,309.392c3.428-0.328,3.967,0.266,3.379,3.359c-0.111,0.584-0.41,0.751-0.941,0.828
	c-2.125,0.308-2.426,0.056-2.438-2.137C423.769,310.815,423.771,310.187,423.771,309.392z"/>
<path fill="#FFFFFF" d="M132.093,310.989c0.131-0.522-0.353-1.407,0.413-1.626c0.803-0.229,1.718-0.095,2.582-0.063
	c0.215,0.008,0.361,0.264,0.36,0.529c-0.005,1.027,0.008,2.057-0.014,3.084c-0.011,0.484-0.337,0.661-0.789,0.658
	c-0.317-0.004-0.637-0.028-0.949,0.012c-1.226,0.156-1.781-0.332-1.609-1.592C132.129,311.681,132.093,311.358,132.093,310.989z"/>
<path fill="#0D84FF" d="M269.142,382.24c0.08-0.335,0.245-0.45,0.551-0.208c0.917,3.203,1.473,6.469,1.748,9.798
	C270.675,388.633,269.91,385.437,269.142,382.24z"/>
<path fill="#0D84FF" d="M275.96,412.756c-0.188,0.124-0.373,0.252-0.563,0.372c-0.063,0.04-0.139,0.061-0.209,0.09
	c0.025-0.051,0.053-0.102,0.083-0.154c0.317-2.817,0.63-5.635,0.942-8.453C276.587,407.353,276.093,410.046,275.96,412.756z"/>
<path fill="#0D84FF" d="M279.455,382.853c0.137-0.175,0.291-0.194,0.463-0.054c-0.553,2.716-1.104,5.425-1.654,8.132
	C278.285,388.173,278.807,385.502,279.455,382.853z"/>
<path fill="#0D84FF" d="M274.257,412.552c-0.045,0.256-0.161,0.278-0.34,0.098c-0.498-1.555-0.211-3.139,0.045-4.74
	C274.061,409.457,274.16,411.004,274.257,412.552z"/>
<path fill="#0D84FF" d="M274.007,416.669c-0.021,0.123-0.094,0.178-0.215,0.161C273.776,416.657,273.718,416.438,274.007,416.669z"
	/>
<polygon fill="#0D84FF" points="276.531,416.705 276.568,416.745 276.462,416.8 "/>
<path fill="#0D84FF" d="M279.429,422.224c-0.229-0.688,0.168-1.244,0.4-1.824c2.586-6.467,5.723-12.651,9.734-18.351
	c7.833-11.124,18.256-18.584,31.512-21.921c6.012-1.513,10.998,2.325,11.574,8.807c0.713,8-4.477,12.387-10.217,13.25
	c-9.166,1.381-18.02,4.092-26.335,8.174c-5.576,2.738-10.749,6.265-15.274,10.617c-0.457,0.439-0.951,0.845-1.428,1.265
	L279.429,422.224z"/>
<path fill="#0D84FF" d="M270.468,421.79c-0.994-0.211-1.362-0.775-1.822-1.195c-8.816-8.053-19.295-12.949-30.678-16.089
	c-3.682-1.016-7.422-1.806-11.188-2.483c-4.111-0.741-7.26-2.875-8.747-6.92c-1.634-4.443-1.153-8.689,1.85-12.433
	c2.172-2.707,5.181-3.419,8.443-2.623c8.847,2.161,16.764,6.151,23.501,12.353c7.335,6.754,12.46,15.031,16.523,24.031
	C269.099,418.085,269.916,419.724,270.468,421.79z"/>
<path fill="#0D84FF" d="M291.873,428.455c0.362,0.783,1.193,0.639,1.811,0.842c3.171,1.037,6.232,2.26,9.221,3.803
	c2.816,1.457,5.594,2.949,8.207,4.732c2.014,1.373,3.943,2.869,5.902,4.324c2.373,1.764,3.625,4.215,3.953,7.076
	c0.322,2.829-0.729,5.198-3.125,6.813c-2.334,1.572-4.777,1.525-7.252,0.232c-1.039-0.543-1.678-1.437-2.336-2.347
	c-3.268-4.53-6.691-8.914-10.723-12.823c-5.033-4.88-10.677-8.847-16.91-12.013c-0.494-0.25-0.978-0.52-1.459-0.793
	c-0.06-0.031-0.078-0.135-0.144-0.256c0.761-0.555,1.655-0.426,2.493-0.434c2.56-0.025,5.098,0.205,7.623,0.639
	c0.914,0.156,1.826,0.549,2.787,0.24L291.873,428.455z"/>
<path fill="#0D84FF" d="M252.473,430.392c2.852-0.731,5.635-1.704,8.553-2.213c3.726-0.647,7.388-0.776,9.703-0.168
	c-0.004,0.386-0.312,0.504-0.583,0.636c-11.932,5.702-21.129,14.489-28.531,25.301c-0.637,0.93-1.303,1.793-2.34,2.338
	c-2.667,1.399-5.252,1.307-7.644-0.525c-2.576-1.971-3.184-4.727-2.514-7.74c0.512-2.301,1.667-4.278,3.597-5.78
	c5.94-4.623,12.167-8.752,19.234-11.482c0.21-0.082,0.381-0.266,0.57-0.399L252.473,430.392z"/>
<path fill="#0D84FF" d="M240.207,418.021c-1.506-0.188-3.016-0.354-4.517-0.571c-2.382-0.349-4.07-2.367-4.072-4.823
	c-0.001-2.165,1.663-3.986,4.074-4.305c2.881-0.381,5.706,0.098,8.489,0.803c2.958,0.75,5.709,2.033,8.412,3.423
	c5.274,2.714,10.178,6.015,14.984,9.469c0.251,0.183,0.54,0.341,0.568,0.916c-1.672,0.197-3.365,0.422-5.065,0.591
	c-6.843,0.674-13.627,1.745-20.391,2.965c-2.013,0.36-3.992,0.272-5.871-0.586c-1.283-0.589-2.37-1.447-2.479-2.98
	c-0.108-1.527,0.849-2.527,2.006-3.331C237.479,418.806,238.785,418.438,240.207,418.021z"/>
<path fill="#0D84FF" d="M281.832,422.74c0.031-0.146,0.012-0.359,0.103-0.424c7.063-5.068,14.198-10.025,22.521-12.893
	c3.047-1.05,6.193-1.489,9.418-1.184c1.986,0.188,3.494,1.129,4.223,3.032c0.643,1.679-0.182,4.139-1.688,5.414
	c-0.566,0.479-1.191,0.731-1.947,0.799c-1.541,0.138-3.076,0.359-5.004,0.597c1.596,0.375,2.844,0.646,3.906,1.351
	c1.236,0.819,2.271,1.819,2.172,3.469c-0.102,1.67-1.273,2.512-2.643,3.098c-1.727,0.74-3.529,0.863-5.395,0.555
	c-4.166-0.692-8.34-1.342-12.513-1.994c-4.099-0.643-8.21-1.18-12.353-1.454C282.328,423.083,281.988,423.107,281.832,422.74z"/>
<path fill="#0D84FF" d="M277.218,431.289c2.031,1.084,3.642,2.691,5.156,4.4c3.688,4.159,6.547,8.87,9.01,13.823
	c2.914,5.861,5.449,11.888,7.408,18.14c0.836,2.666,1.605,5.352,2.383,8.035c0.637,2.188,0.73,4.409,0.252,6.645
	c-0.654,3.07-2.773,3.896-5.26,1.965c-2.006-1.561-3.34-3.6-4.002-6.1c-1.652-6.256-3.317-12.511-5.074-18.736
	c-2.625-9.301-5.586-18.484-9.856-27.191C277.105,432.005,276.835,431.736,277.218,431.289z"/>
<path fill="#0D84FF" d="M272.841,431.099c-0.059,1.261-0.549,1.914-0.898,2.604c-2.277,4.477-4.129,9.182-5.671,13.902
	c-1.899,5.813-3.637,11.721-5.124,17.68c-1.082,4.338-2.271,8.647-3.409,12.973c-0.654,2.48-1.974,4.553-4.012,6.092
	c-2.525,1.908-4.603,1.164-5.312-1.922c-0.45-1.957-0.464-3.973,0.045-5.938c2.938-11.34,7.046-22.224,12.946-32.371
	c2.046-3.519,4.425-6.828,7.323-9.726C269.914,433.21,271.149,432.091,272.841,431.099z"/>
<path fill="#0D84FF" d="M270.063,430.458c-2.76,2.895-5.321,5.939-7.729,9.131c-2.208,2.928-3.993,6.111-5.804,9.273
	c-1.625,2.836-2.992,5.821-4.404,8.774c-0.507,1.062-1.202,1.877-2.212,2.433c-1.873,1.024-3.477,0.487-4.251-1.523
	c-0.83-2.154-0.597-4.375,0.65-6.213c4.718-6.957,9.95-13.477,16.907-18.391C265.301,432.474,267.492,431.207,270.063,430.458z"/>
<path fill="#0D84FF" d="M279.867,430.486c0.795-0.261,1.377,0.297,1.969,0.608c3.678,1.938,6.867,4.445,9.959,7.291
	c4.379,4.029,7.887,8.67,11.377,13.383c1.359,1.837,1.736,3.938,1.203,6.148c-0.633,2.635-2.688,3.355-4.914,1.809
	c-0.895-0.62-1.395-1.498-1.846-2.45c-2.048-4.332-4.244-8.589-6.758-12.668c-2.945-4.783-6.277-9.271-10.367-13.154
	C280.214,431.191,279.867,430.966,279.867,430.486z"/>
<path fill="#0D84FF" d="M222.837,413.991c-0.968-0.145-1.888,0.148-2.826,0.3c-1.899,0.306-3.792,0.366-5.678-0.146
	c-1.427-0.389-2.82-0.873-3.235-2.469c-0.449-1.728,0.672-2.859,1.839-3.857c2.236-1.907,4.917-2.864,7.768-3.34
	c1.648-0.272,3.322-0.313,5-0.125c0.805,0.09,1.574,0.28,2.293,0.613c2.224,1.03,2.678,2.911,1.185,4.855
	c-1.151,1.499-2.786,2.328-4.434,3.146c-0.666,0.328-1.552,0.262-1.966,1.059L222.837,413.991z"/>
<path fill="#0D84FF" d="M325.96,413.576c-0.393-0.685-1.172-0.726-1.771-1.06c-1.189-0.66-2.361-1.344-3.262-2.388
	c-1.881-2.187-1.408-4.149,1.236-5.274c0.746-0.316,1.518-0.455,2.316-0.525c3.652-0.329,7.09,0.419,10.336,2.081
	c1.211,0.621,2.326,1.396,3.166,2.498c1.512,1.983,1.076,3.805-1.221,4.812c-2.109,0.924-4.34,0.943-6.576,0.605
	c-0.943-0.143-1.867-0.422-2.838-0.305l0.061,0.041c-0.313-0.717-0.945-0.504-1.498-0.519L325.96,413.576z"/>
<path fill="#0D84FF" d="M291.921,428.492c-1.192-1.051-2.76-1.039-4.174-1.387c-2.554-0.632-5.15-1.078-8.242-1.216
	c2.791-0.881,5.207-0.778,7.638-0.639c8.552,0.496,16.579,3.021,24.419,6.279c1.617,0.672,3.221,1.383,4.807,2.129
	c1.459,0.684,2.783,1.594,3.723,2.926c1.078,1.533,0.5,2.775-1.367,3.074c-1.264,0.203-2.297-0.32-3.357-0.947
	c-6.463-3.813-13.156-7.152-20.287-9.547c-1.029-0.346-2.029-0.979-3.207-0.711C291.873,428.455,291.921,428.492,291.921,428.492z"
	/>
<path fill="#0D84FF" d="M252.518,430.355c-1.031-0.07-1.921,0.217-2.891,0.651c-5.469,2.453-10.847,5.068-15.955,8.217
	c-0.067,0.043-0.136,0.084-0.209,0.115c-1.463,0.635-3.43,0.322-3.965-0.625c-0.5-0.887-0.038-2.057,1.35-3.276
	c0.841-0.74,1.757-1.378,2.788-1.847c7.792-3.545,15.736-6.653,24.275-7.834c4.018-0.557,8.081-1.117,12.543,0.084
	c-5.875,0.451-11.146,1.738-16.297,3.549c-0.622,0.22-1.415,0.181-1.684,1.002L252.518,430.355z"/>
<path fill="#0D84FF" d="M210.069,371.856c3.194-0.151,6.388-0.078,9.462,0.92c1.101,0.358,2.643,0.563,2.67,1.98
	c0.028,1.452-1.517,1.672-2.623,2.001c-4.657,1.384-9.425,1.485-14.216,1.035c-1.502-0.142-2.991-0.451-4.472-0.757
	c-0.694-0.145-1.371-0.419-2.024-0.707c-0.656-0.289-1.413-0.631-1.441-1.444c-0.029-0.833,0.739-1.192,1.379-1.489
	c2.05-0.957,4.261-1.33,6.484-1.515C206.872,371.75,208.475,371.856,210.069,371.856z"/>
<path fill="#0D84FF" d="M340.181,378.044c-3.227,0.074-6.152-0.26-9.043-0.945c-0.936-0.222-1.854-0.521-2.662-1.043
	c-1.316-0.85-1.348-1.75-0.02-2.533c0.742-0.438,1.592-0.767,2.436-0.955c6.172-1.385,12.35-1.408,18.488,0.177
	c1.25,0.323,3.061,0.538,2.996,2.211c-0.057,1.452-1.783,1.692-2.965,2.015C346.314,377.81,343.14,378.161,340.181,378.044z"/>
<path fill="#0D84FF" d="M232.824,473.494c0.565-4.56,2.097-9.115,5.273-13.004c0.744-0.91,1.661-1.988,2.982-1.492
	c1.334,0.498,1.366,1.922,1.242,3.096c-0.351,3.312-0.957,6.576-2.778,9.459c-0.162,0.256-0.4,0.445-0.46,0.777
	c-0.238,1.316-1.097,2.297-1.93,3.244c-0.819,0.93-1.68,2.274-3.131,1.676C232.616,476.667,232.889,475.128,232.824,473.494z"/>
<path fill="#0D84FF" d="M317.042,474.347c-0.182,0.945,0.148,2.429-1.238,2.92c-1.354,0.482-2.203-0.69-2.965-1.579
	c-2.057-2.402-3.248-5.263-4.305-8.216c-0.715-1.993-0.969-3.993-0.904-6.071c0.029-0.984,0.094-2.019,1.158-2.422
	c1.057-0.4,1.785,0.385,2.498,1.018c0.238,0.211,0.447,0.455,0.656,0.695C314.552,463.703,317,470.169,317.042,474.347z"/>
<path fill="#0D84FF" d="M341.162,378.905c1.908-0.049,3.746,0.376,5.369,1.509c2.512,1.755,2.553,4.269,0.129,6.081
	c-2.92,2.182-8.434,2.05-11.213-0.27c-2.029-1.69-2.027-4.022,0.059-5.672C337.138,379.265,339.066,378.86,341.162,378.905z"/>
<path fill="#0D84FF" d="M208.55,388.075c-1.939-0.143-3.806-0.501-5.395-1.684c-2.144-1.594-2.201-3.91-0.181-5.646
	c2.739-2.354,8.589-2.429,11.407-0.147c2.092,1.693,2.098,3.937-0.031,5.633C212.659,387.577,210.636,387.949,208.55,388.075z"/>
<path fill="#0D84FF" d="M227.849,461.871c-2.016-0.17-2.809-0.877-2.958-2.635c-0.162-1.906,1.157-4.058,2.671-4.354
	c1.079-0.213,2.079,0.502,2.438,1.781c0.15,0.535,0.225,1.082,0.132,1.652c-0.086,0.528-0.361,1.053-0.133,1.604
	c0.451,0.264,0.733-0.127,1.081-0.238c1.859-0.598,3.041,0.045,3.188,1.939c0.266,3.416-1.02,6.277-3.648,8.422
	c-1.91,1.557-3.751,0.652-3.951-1.85c-0.172-2.152,0.752-4.035,1.651-5.908c0.121-0.181,0.352-0.379,0.121-0.576
	C228.233,461.529,228.01,461.677,227.849,461.871z"/>
<path fill="#0D84FF" d="M321.542,462.115c0.365,0.881,0.734,1.76,1.098,2.643c0.436,1.055,0.57,2.164,0.521,3.291
	c-0.045,1.062-0.191,2.152-1.352,2.586c-1.092,0.406-2.02-0.086-2.84-0.813c-1.875-1.664-2.887-3.789-3.342-6.213
	c-0.258-1.386-0.289-2.802,0.861-3.785c1.25-1.072,2.385-0.076,3.586,0.615c0.221-0.976-0.404-1.718-0.381-2.558
	c0.039-1.387,0.686-2.594,1.689-2.924c1-0.328,2.174,0.313,2.912,1.609c0.484,0.854,0.717,1.774,0.617,2.764
	c-0.184,1.832-0.969,2.453-3.059,2.422c-0.164-0.129-0.369-0.311-0.537-0.104C321.146,461.863,321.333,462.021,321.542,462.115z"/>
<path fill="#0D84FF" d="M327.347,414.021c0.402,0.674,1.205,0.689,1.789,1.074c0.939,0.62,1.836,1.278,2.469,2.223
	c1.256,1.881,0.691,3.596-1.406,4.363c-3.064,1.122-8.078-0.584-9.773-3.326c-1.164-1.883-0.541-3.545,1.553-4.348
	c1.305-0.5,2.67-0.167,3.984-0.431l-0.051-0.032c0.305,0.734,0.963,0.447,1.498,0.518L327.347,414.021z"/>
<path fill="#0D84FF" d="M222.782,414.026c1.484,0.005,2.905-0.615,4.455-0.188c2.966,0.818,3.673,2.962,1.643,5.292
	c-0.794,0.91-1.876,1.427-2.809,2.146l0.037-0.033c-0.915,0.234-1.82,0.514-2.746,0.689c-0.691,0.134-1.42,0.246-2.109,0.168
	c-1.52-0.174-3.088-0.514-3.61-2.203c-0.486-1.574,0.544-2.684,1.576-3.709c1.029-1.022,2.404-1.477,3.618-2.196
	C222.837,413.991,222.782,414.026,222.782,414.026z"/>
<path fill="#0D84FF" d="M208.561,396.722c-1.341-0.052-2.513-0.285-3.537-0.969c-1.574-1.049-1.823-2.598-0.707-4.123
	c1.799-2.459,6.604-3.337,9.16-1.674c1.759,1.145,2.01,2.877,0.568,4.466C212.555,396.065,210.562,396.573,208.561,396.722z"/>
<path fill="#0D84FF" d="M339.73,389.073c2.049,0.088,3.947,0.602,5.439,2.103c1.695,1.706,1.324,3.827-0.813,4.902
	c-2.416,1.215-6.316,0.563-8.277-1.382c-1.779-1.768-1.422-4.018,0.852-5.045C337.8,389.257,338.738,389,339.73,389.073z"/>
<path fill="#0D84FF" d="M226.07,421.274c1.251-0.142,2.427-0.683,3.73-0.603c1.349,0.084,2.493,0.443,3.162,1.715
	c0.701,1.33,0.129,2.479-0.642,3.519c-0.558,0.748-1.277,1.377-1.925,2.061l0.045-0.026c-0.417,0.018-0.774,0.149-1.013,0.518
	l0.048-0.039c-0.252,0.1-0.733-0.025-0.514,0.531l0.049-0.049c-1.177,0.036-2.361,0.172-3.53,0.092
	c-2.641-0.178-3.704-2.215-2.517-4.584c0.71-1.416,2.145-2.064,3.143-3.168C226.107,421.241,226.07,421.274,226.07,421.274z"/>
<path fill="#0D84FF" d="M320.175,428.445c-0.801-0.738-1.666-1.422-2.389-2.23c-1.012-1.133-1.572-2.498-0.799-3.953
	c0.717-1.348,2.066-1.708,3.502-1.555c2.637,0.276,4.91,1.293,6.307,3.668c1.338,2.271,0.191,4.309-2.438,4.6
	c-1.479,0.162-2.82-0.397-4.232-0.571L320.175,428.445z"/>
<path fill="#0D84FF" d="M308.515,472.298c-0.076,0.43-0.145,1.068-0.313,1.678c-0.611,2.209-2.105,2.709-3.672,1.109
	c-2.447-2.498-3.246-5.59-2.736-9.014c0.145-0.965,0.496-1.906,1.613-2.152c1.072-0.236,1.861,0.353,2.492,1.111
	C307.597,467.068,308.271,469.498,308.515,472.298z"/>
<path fill="#0D84FF" d="M241.492,471.726c0.123-2.45,0.825-4.709,2.398-6.633c0.683-0.834,1.527-1.5,2.69-1.162
	c1.179,0.341,1.496,1.404,1.601,2.447c0.301,2.98-0.42,5.719-2.256,8.107c-0.69,0.897-1.538,1.782-2.818,1.387
	c-1.259-0.391-1.459-1.582-1.604-2.709C241.441,472.691,241.492,472.207,241.492,471.726z"/>
<path fill="#0D84FF" d="M337.234,397.668c2.619-0.022,4.813,1.646,4.813,3.66c0,2.021-2.16,3.649-4.824,3.639
	c-2.611-0.01-4.551-1.481-4.627-3.515C332.517,399.354,334.556,397.69,337.234,397.668z"/>
<path fill="#0D84FF" d="M212.521,405.015c-2.75-0.066-4.679-1.65-4.666-3.683c0.014-2.024,1.962-3.58,4.509-3.672
	c1.148-0.042,2.184,0.341,3.148,0.819c1.125,0.561,1.818,1.595,1.813,2.887c-0.004,1.295-0.715,2.341-1.846,2.863
	C214.514,404.676,213.481,405.162,212.521,405.015z"/>
<path fill="#0D84FF" d="M310.458,481.111c0,0.301,0.004,0.381,0,0.461c-0.059,1.647-0.918,2.977-2.045,3.162
	c-1.283,0.211-2.377-0.802-2.869-2.634c-0.211-0.784-0.246-1.567-0.045-2.356c0.346-1.344,1.182-2.299,2.135-2.275
	c1.295,0.031,1.971,0.938,2.406,2.01C310.279,480.058,310.359,480.705,310.458,481.111z"/>
<path fill="#0D84FF" d="M244.417,480.445c0.035,1.518-0.202,2.432-0.773,3.237c-0.482,0.681-1.108,1.158-1.993,1.103
	c-1.008-0.064-1.579-0.73-1.883-1.598c-0.556-1.591-0.426-3.136,0.539-4.554c0.465-0.684,1.088-1.227,1.961-1.153
	c0.977,0.079,1.558,0.784,1.879,1.631C244.368,479.693,244.399,480.345,244.417,480.445z"/>
<path fill="#0D84FF" d="M230.395,427.966c0.72,0.535,1.526-0.069,2.29,0.189c0.934,0.315,1.881,0.59,2.056,1.729
	c0.17,1.107-0.538,1.779-1.367,2.33c-0.91,0.604-1.938,0.717-2.991,0.604c-2.042-0.222-2.674-1.476-1.69-3.297
	c0.11-0.205,0.212-0.414,0.318-0.621l-0.049,0.049c0.319-0.033,0.634-0.07,0.514-0.531l-0.048,0.039
	c0.416-0.02,0.977,0.246,1.013-0.518L230.395,427.966z"/>
<path fill="#0D84FF" d="M320.125,428.402c0.203,0.233,0.385,0.491,0.611,0.698c0.764,0.697,1.283,1.494,0.771,2.529
	c-0.482,0.976-1.42,1.188-2.43,1.223c-1.168,0.041-2.221-0.229-3.098-1.028c-1.424-1.297-1.096-2.777,0.672-3.527
	c1.238-0.527,2.352,0.141,3.523,0.15C320.175,428.445,320.125,428.402,320.125,428.402z"/>
<path fill="#0D84FF" d="M224.087,450.759c0.036-1.178,0.879-2.094,1.887-2.051c1.183,0.051,2.49,1.58,2.436,2.852
	c-0.05,1.152-0.908,2.029-1.959,2.007C225.136,453.535,224.041,452.234,224.087,450.759z"/>
<path fill="#0D84FF" d="M321.546,451.425c0.035-1.42,1.285-2.785,2.492-2.721c0.953,0.053,1.818,1.104,1.799,2.184
	c-0.027,1.392-1.291,2.709-2.551,2.662C322.189,453.511,321.517,452.691,321.546,451.425z"/>
<path fill="#0D84FF" d="M272.951,431.113c0.004,0.063,0.029,0.135,0.008,0.188c-0.021,0.051-0.098,0.127-0.135,0.121
	c-0.205-0.041-0.222-0.141-0.049-0.256C272.824,431.136,272.891,431.13,272.951,431.113z"/>
<polygon fill="#0D84FF" points="279.397,422.24 279.335,422.265 279.428,422.224 "/>
<path fill="#050505" d="M327.408,414.062c-0.535-0.07-1.193,0.217-1.498-0.519C326.462,413.558,327.095,413.345,327.408,414.062z"/>
<path fill="#050505" d="M227.849,461.871c0.161-0.193,0.385-0.342,0.592-0.162c0.23,0.197,0,0.396-0.121,0.576
	C228.163,462.146,228.006,462.009,227.849,461.871z"/>
<path fill="#050505" d="M321.542,462.115c-0.209-0.094-0.395-0.252-0.223-0.465c0.168-0.207,0.373-0.025,0.537,0.104
	C321.753,461.873,321.648,461.994,321.542,462.115z"/>
<path fill="#050505" d="M230.44,427.939c-0.036,0.764-0.597,0.497-1.013,0.518C229.666,428.089,230.023,427.957,230.44,427.939z"/>
<path fill="#050505" d="M229.476,428.417c0.12,0.461-0.195,0.498-0.514,0.531C228.742,428.392,229.224,428.517,229.476,428.417z"/>
</svg>
