<?xml version="1.0" encoding="utf-8"?>
<!-- Generator: Adobe Illustrator 16.0.0, SVG Export Plug-In . SVG Version: 6.00 Build 0)  -->
<!DOCTYPE svg PUBLIC "-//W3C//DTD SVG 1.1//EN" "http://www.w3.org/Graphics/SVG/1.1/DTD/svg11.dtd">
<svg version="1.1" id="Capa_1" xmlns="http://www.w3.org/2000/svg" xmlns:xlink="http://www.w3.org/1999/xlink" x="0px" y="0px"
	 width="328.52px" height="328.521px" viewBox="0 0 328.52 328.521" enable-background="new 0 0 328.52 328.521"
	 xml:space="preserve">
<path fill-rule="evenodd" clip-rule="evenodd" fill="#DB89B1" d="M127.143,114.585c-5.158,0.088-10.313-0.079-15.45-0.494
	c-9.239-0.747-16.535-5.086-22.013-12.457c-3.344-4.5-5.198-9.69-6.144-15.18c-0.377-2.193-0.573-4.448-0.557-6.672
	c0.03-4.311-0.452-8.603-0.165-12.932c0.211-3.187-0.498-6.289-3.098-8.596c-0.675-0.599-1.475-0.938-2.262-1.323
	c-0.752-0.369-1.503-0.742-2.249-1.124c-1.263-0.648-1.745-1.788-1.52-3.075c0.201-1.152,1.149-1.875,2.202-2.328
	c0.733-0.315,1.525-0.448,2.342-0.437c1.639,0.023,3.281-0.042,4.918,0.02c3.121,0.119,6.23-0.353,9.341-0.212
	c7.993,0.36,15.992,0.004,23.98,0.256c4.921,0.155,9.608,1.535,13.991,3.823c4.518,2.36,8.201,5.723,11.085,9.87
	c3.366,4.84,5.291,10.26,5.777,16.173c0.342,4.155,0.113,8.302,0.059,12.458c-0.08,6.107,0.086,12.218,0.146,18.327
	c0.007,0.68,0.007,1.36,0,2.04c-0.013,1.453-0.16,1.65-1.558,1.62C139.69,114.201,133.42,114.672,127.143,114.585z M141.727,93.59
	c0-4.318,0.125-8.641-0.034-12.954c-0.167-4.531-1.292-8.824-3.918-12.64c-1.092-1.588-2.302-3.073-3.605-4.475
	c-3.102-3.336-6.646-5.932-11.294-6.756c-4.51-0.8-9.072-0.776-13.611-0.916c-6.272-0.192-12.555-0.063-18.832-0.065
	c-1.624,0-1.695,0.075-1.696,1.694c-0.003,8.317-0.036,16.634,0.013,24.951c0.02,3.493,0.561,6.915,1.941,10.166
	c1.464,3.449,3.79,6.285,6.422,8.87c3.515,3.453,7.531,6.037,12.535,6.778c3.651,0.541,7.339,0.338,11.004,0.472
	c6.03,0.221,12.074,0.065,18.112,0.063c0.438,0,0.878-0.029,1.316-0.063c1.186-0.094,1.702-0.631,1.68-1.929
	C141.682,102.388,141.729,97.988,141.727,93.59z"/>
<path fill-rule="evenodd" clip-rule="evenodd" fill="#DB89B1" d="M178.685,108.82c-0.43-8.251-0.234-16.508-0.197-24.762
	c0.015-3.309,0.206-6.625,0.5-9.921c0.171-1.917,1.022-3.715,1.919-5.395c2.604-4.878,5.952-9.176,10.394-12.55
	c3.529-2.681,7.512-4.304,11.822-5.269c3.895-0.872,7.826-0.969,11.781-0.947c2.639,0.014,5.278-0.06,7.916,0.004
	c4.358,0.106,8.717-0.443,13.058-0.178c4.391,0.269,8.795-0.163,13.162,0.377c2.094,0.259,3.28,1.737,2.826,3.867
	c-0.2,0.942-1.038,1.396-1.76,1.858c-0.938,0.602-1.977,1.041-2.938,1.609c-3.347,1.981-4.556,5.105-4.56,8.808
	c-0.003,2.316,0.266,4.641,0.136,6.946c-0.284,5.018-0.356,10.053-1.113,15.041c-1.263,8.319-5.447,14.76-12.189,19.716
	c-3.547,2.607-7.438,4.409-11.655,5.406c-3.604,0.852-7.313,1.228-11.047,0.962c-0.518-0.037-1.039-0.028-1.559-0.028
	c-8.316-0.002-16.634-0.017-24.95,0.013c-1.104,0.004-1.629-0.294-1.563-1.486C178.741,111.539,178.685,110.178,178.685,108.82z
	 M221.194,55.793c-4.359,0-8.722-0.079-13.079,0.026c-3.094,0.074-6.085,0.781-8.931,2.067c-4.157,1.878-7.343,4.926-10.159,8.4
	c-2.898,3.572-4.841,7.727-4.908,12.27c-0.14,9.428-0.727,18.861-0.111,28.294c0.112,1.727,0.284,1.931,1.988,1.932
	c7.919,0.005,15.839,0.009,23.759,0.006c6.766-0.002,12.8-2.039,17.976-6.471c3.256-2.788,6.034-5.891,7.572-10.015
	c1.3-3.484,1.074-7.106,1.166-10.667c0.211-8.153,0.08-16.313-0.137-24.468c-0.028-1.059-0.461-1.393-1.456-1.388
	C230.314,55.805,225.754,55.791,221.194,55.793z"/>
<path fill-rule="evenodd" clip-rule="evenodd" fill="#DB89B1" d="M165.312,99.064c0.121,4.714-0.206,9.435,0.171,14.146
	c0.057,0.7-0.259,1.087-0.939,1.106c-1.118,0.032-2.239,0.031-3.358,0.006c-0.788-0.018-0.963-0.55-0.962-1.234
	c0.002-7.349-0.02-14.697,0-22.046c0.005-1.834,0.212-3.67,0.191-5.503c-0.054-4.835-0.353-9.643-1.697-14.335
	c-1.142-3.983-2.726-7.754-4.739-11.385c-1.702-3.066-3.764-5.847-6.156-8.354c-2.167-2.271-4.543-4.354-7.195-6.086
	c-3.325-2.172-6.825-3.989-10.606-5.228c-4.148-1.358-8.358-2.336-12.746-2.639c-4.601-0.318-9.182-0.158-13.77,0.037
	c-2.483,0.105-4.949-0.184-7.423-0.265c-0.931-0.03-1.86-0.23-2.458-1.037c-0.488-0.658-0.867-1.459-0.406-2.235
	c0.551-0.927,1.247-1.773,2.505-1.798c2.717-0.054,5.435,0.047,8.154-0.079c1.874-0.086,3.756,0.067,5.635,0.063
	c5.683-0.012,11.307,0.626,16.93,1.372c5.99,0.795,11.429,3.022,16.407,6.308c3.782,2.496,6.944,5.714,9.721,9.335
	c2.431,3.17,4.92,6.296,7.175,9.593c0.917,1.342,1.588,2.854,2.332,4.309c0.213,0.417,0.209,0.984,0.854,0.994
	c0.702,0.012,0.438-0.617,0.623-0.957c0.552-1.015,1.187-1.984,1.717-3.01c3.805-7.36,8.904-13.639,15.618-18.53
	c4.892-3.564,10.292-6.213,16.152-7.651c4.828-1.186,9.714-2.201,14.792-2.002c5.027,0.196,10.07,0.073,15.104,0.246
	c1.391,0.048,2.766-0.356,4.177,0.001c1.65,0.419,2.442,1.287,2.344,2.82c-0.089,1.39-1.047,2.274-2.727,2.268
	c-3.918-0.015-7.832,0.262-11.743,0.194c-2.353-0.041-4.709-0.181-7.065-0.177c-7.709,0.011-15.094,1.505-21.976,5.059
	c-4.833,2.495-9.014,5.86-12.734,9.832c-4.828,5.153-7.936,11.29-10.195,17.87c-0.983,2.864-1.373,5.926-1.452,8.969
	C165.394,85.712,165.143,92.386,165.312,99.064z"/>
<path fill-rule="evenodd" clip-rule="evenodd" fill="#DB89B1" d="M113.772,168.85c-4.438,0-8.876,0.001-13.315,0
	c-1.845-0.001-3.015-0.675-3.316-1.903c-0.487-1.987,0.182-3.606,1.88-4.473c1.87-0.955,3.675-2.042,4.773-3.878
	c1.522-2.546,2.264-5.319,2.015-8.335c-0.167-2.039,0.174-4.077,0.514-6.068c1.458-8.545,6.765-13.697,14.75-16.455
	c1.174-0.405,2.325-0.47,3.519-0.47c3.599,0.001,7.198,0.006,10.796-0.002c2.476-0.006,4.94,0.369,7.42,0.222
	c1.151-0.068,2.294-0.174,3.457-0.025c0.764,0.099,1.042,0.421,1.04,1.149c-0.017,7.031,0.503,14.063-0.035,21.091
	c-0.571,7.455-4.354,12.724-10.893,16.217c-2.396,1.28-4.992,1.899-7.505,2.799c-0.434,0.155-0.948,0.116-1.425,0.116
	c-4.559,0.008-9.117,0.005-13.675,0.005C113.772,168.843,113.772,168.846,113.772,168.85z M141.487,142.59c-0.001,0-0.003,0-0.005,0
	c0-2.88-0.005-5.76,0.004-8.64c0.002-0.753-0.109-1.314-1.069-1.375c-5.271-0.332-10.554-0.492-15.808,0.028
	c-5.7,0.564-9.653,3.766-11.936,8.948c-0.807,1.833-0.67,3.922-0.847,5.893c-0.359,4.015-0.491,8.05-0.735,12.076
	c-0.138,2.272,0.935,3.477,3.197,3.484c4,0.013,8.003-0.105,11.999,0.032c5.13,0.176,9.117-1.978,12.385-5.7
	c1.846-2.103,2.926-4.532,2.831-7.427C141.424,147.472,141.487,145.029,141.487,142.59z"/>
<path fill-rule="evenodd" clip-rule="evenodd" fill="#DB89B1" d="M211.442,168.848c-4.318-0.001-8.637-0.059-12.953,0.019
	c-3.071,0.055-5.794-1.098-8.457-2.328c-3.982-1.839-6.994-4.888-9.305-8.553c-1.21-1.918-1.996-4.094-2.035-6.44
	c-0.081-4.912-0.337-9.82-0.249-14.736c0.05-2.794,0.349-5.579,0.244-8.38c-0.047-1.256,0.315-1.575,1.615-1.37
	c1.595,0.252,3.198,0.274,4.782,0.165c2.994-0.207,5.975-0.066,8.965,0.015c3.714,0.101,7.42,0.328,11.094,0.814
	c3.769,0.5,6.768,2.496,9.152,5.425c1.619,1.989,3.062,4.084,3.994,6.502c0.949,2.461,1.303,5.013,1.254,7.628
	c-0.052,2.767,0.028,5.496,0.982,8.157c0.833,2.322,2.349,4.052,4.267,5.488c0.733,0.549,1.53,1.013,2.303,1.509
	c1.28,0.822,1.871,3.746,0.989,4.997c-0.543,0.77-1.268,1.109-2.251,1.103C221.037,168.828,216.239,168.848,211.442,168.848z
	 M184.03,141.925c-0.002,0-0.005,0-0.007,0c0,2.239,0.06,4.48-0.011,6.717c-0.252,7.979,6.747,14.138,13.857,14.333
	c4.835,0.133,9.677,0.047,14.515,0.023c1.533-0.008,2.345-0.981,2.246-2.478c-0.305-4.618-0.744-9.233-0.844-13.856
	c-0.081-3.802-1.229-7.043-3.872-9.744c-2.422-2.474-5.264-4.061-8.813-4.345c-5.237-0.42-10.465,0.037-15.695-0.001
	c-1.056-0.008-1.403,0.422-1.389,1.434C184.057,136.646,184.03,139.286,184.03,141.925z"/>
<path fill-rule="evenodd" clip-rule="evenodd" fill="#584950" d="M268.415,227.581c0.264-6.317,1.545-12.995,5.88-18.721
	c3.883-5.129,9.118-7.75,15.492-8.465c4.182-0.469,8.135,0.088,11.91,1.795c6.063,2.741,9.559,7.531,10.726,14.043
	c0.341,1.902,0.299,1.919-1.532,2.59c-12.193,4.467-24.387,8.932-36.581,13.396c-1.762,0.645-1.825,0.655-1.421,2.324
	c1.418,5.841,4.156,10.793,9.577,13.876c3.694,2.102,7.677,2.492,11.825,2.029c2.89-0.323,5.548-1.25,7.871-2.963
	c3.975-2.931,6.255-6.869,6.572-11.843c0.055-0.846,0.386-1.147,1.168-1.115c0.479,0.021,0.967-0.033,1.438,0.034
	c0.904,0.13,1.299,0.715,1.205,1.601c-0.513,4.855-2.412,9.13-5.839,12.571c-3.381,3.396-7.641,5.05-12.407,5.585
	c-4.872,0.547-9.468-0.193-13.757-2.537c-5.659-3.091-8.938-8.057-10.747-14.098C268.873,234.609,268.427,231.455,268.415,227.581z
	 M272.353,226.253c-0.003,2.607-0.01,2.588,1.979,1.853c3.784-1.397,7.577-2.771,11.367-4.152c7.094-2.582,14.188-5.159,21.28-7.746
	c1.426-0.52,1.506-0.7,0.992-2.094c-1.637-4.433-4.696-7.44-9.132-9.039c-3.195-1.151-6.482-1.126-9.799-0.704
	c-4.766,0.606-8.585,2.905-11.533,6.614C273.85,215.584,272.699,221.051,272.353,226.253z"/>
<path fill-rule="evenodd" clip-rule="evenodd" fill="#584950" d="M198.329,246.414c-1.257,1.672-2.47,2.907-3.892,3.94
	c-3.249,2.36-6.858,3.588-10.861,3.994c-4.287,0.435-8.343-0.184-12.224-1.958c-5.325-2.434-8.928-6.572-11.006-11.942
	c-3.603-9.307-3.104-18.585,1.126-27.542c3.312-7.012,9.02-11.176,16.717-12.383c6.216-0.975,11.992,0.194,17.103,4.03
	c0.54,0.405,1.012,0.902,1.507,1.366c0.465,0.436,0.918,0.884,1.53,1.476c0-1.374-0.013-2.623,0.003-3.871
	c0.018-1.367,0.772-2.154,2.017-2.14c1.175,0.014,1.942,0.803,1.943,2.091c0.008,15.91,0.009,31.82-0.001,47.73
	c-0.001,1.804-1.928,2.89-3.563,2.056c-0.517-0.264-0.387-0.748-0.391-1.162C198.318,250.32,198.329,248.54,198.329,246.414z
	 M198.353,226.717c0-3.24,0.007-6.479-0.008-9.718c-0.002-0.515-0.059-1.036-0.158-1.542c-0.669-3.388-2.827-5.799-5.426-7.801
	c-4.151-3.195-8.903-4.008-14.043-3.313c-5.573,0.755-9.827,3.552-12.688,8.259c-4.177,6.872-4.934,14.4-3.397,22.17
	c0.957,4.838,3.283,8.935,7.135,12.162c6.614,5.542,19.332,4.693,24.791-1.675c2.354-2.746,3.739-5.722,3.787-9.306
	C198.386,232.875,198.354,229.796,198.353,226.717z"/>
<path fill-rule="evenodd" clip-rule="evenodd" fill="#584950" d="M222.59,224.485c0-8.799-0.16-17.602,0.056-26.396
	c0.145-5.906,1.98-11.239,7.082-14.909c2.399-1.726,5.137-2.612,7.995-3.051c3.854-0.593,7.71-0.516,11.516,0.499
	c6.717,1.79,10.541,6.26,12.078,12.903c0.516,2.229,0.678,4.512,0.688,6.759c0.075,16.798,0.044,33.596,0.04,50.394
	c0,1.924-0.75,2.609-2.548,2.386c-0.831-0.104-1.3-0.567-1.363-1.402c-0.033-0.438-0.018-0.88-0.018-1.319
	c-0.001-16.398,0.017-32.796-0.019-49.194c-0.005-2.51-0.306-5.011-0.904-7.462c-1.311-5.372-4.685-8.662-10.105-9.623
	c-3.587-0.637-7.247-0.661-10.813,0.235c-5.498,1.383-8.24,5.275-9.252,10.608c-0.372,1.96-0.504,3.938-0.5,5.942
	c0.026,16.679,0.014,33.356,0.011,50.034c0,1.669-0.403,2.146-1.814,2.191c-1.692,0.053-2.149-0.385-2.149-2.079
	c-0.002-8.839-0.001-17.678-0.001-26.517C222.575,224.485,222.582,224.485,222.59,224.485z"/>
<path fill-rule="evenodd" clip-rule="evenodd" fill="#584950" d="M76.769,208.862c2.224-3.411,5.265-5.723,8.977-7.157
	c2.74-1.059,5.602-1.575,8.556-1.504c0.592,0.015,1.06,0.109,1.416,0.676c0.333,0.53,3.011,0.776,3.482,0.378
	c0.392-0.332,0.269-0.814,0.27-1.24c0.01-3.399,0.014-6.799,0.003-10.198c-0.006-1.834,1.16-3.193,1.898-4.721
	c0.237-0.49,0.801-0.271,1.204-0.18c0.503,0.114,0.833,0.449,0.829,1.026c-0.005,0.76,0.009,1.52,0.01,2.279
	c0.001,3.96,0.027,7.919-0.017,11.878c-0.011,1.002,0.332,1.374,1.316,1.292c0.715-0.06,1.441-0.037,2.159,0.002
	c1.083,0.06,1.798,0.881,1.788,1.996c-0.01,1.111-0.733,1.901-1.836,1.949c-0.798,0.035-1.6,0.035-2.399,0.008
	c-0.701-0.024-1.058,0.237-1.01,0.973c0.023,0.358,0.001,0.72,0.001,1.08c0,14.518,0.001,29.035-0.002,43.553
	c0,1.6-0.692,2.407-2.011,2.394c-1.083-0.011-1.894-0.759-1.94-1.848c-0.032-0.758,0.012-1.519,0.013-2.278
	c0.001-14.038,0.001-28.076,0-42.113c0-1.809-0.003-1.815-1.776-1.771c-1.233,0.031-2.383,0.1-3.438-0.91
	c-0.686-0.656-1.842-0.333-2.781-0.22c-7.797,0.947-12.849,7.176-14.229,14.236c-0.33,1.687-0.491,3.379-0.485,5.104
	c0.028,9.158,0.014,18.316,0.007,27.476c-0.001,1.513-0.694,2.315-1.96,2.323c-1.145,0.008-1.97-0.752-1.991-1.918
	c-0.027-1.479,0.013-2.959,0.014-4.438c0.002-14.438,0-28.876,0.002-43.313c0-1.802,0.472-2.338,1.976-2.293
	c1.165,0.036,1.928,0.767,1.948,1.965C76.792,205.186,76.769,207.024,76.769,208.862z"/>
<path fill-rule="evenodd" clip-rule="evenodd" fill="#584950" d="M27.33,246.077c1.393-3.821,2.761-7.567,4.124-11.314
	c5.995-16.486,11.989-32.973,17.983-49.46c0.3-0.826,0.582-1.659,0.895-2.48c0.481-1.261,1.782-1.799,3.076-1.29
	c0.833,0.326,1.119,1.362,0.678,2.58c-2.004,5.521-4.018,11.039-6.026,16.56c-5.315,14.605-10.628,29.212-15.943,43.817
	c-0.943,2.591-1.917,5.171-2.818,7.776c-0.283,0.819-0.726,1.114-1.579,1.099c-2.789-0.049-2.223,0.186-3.045-2.065
	c-5.239-14.339-10.456-28.685-15.679-43.029c-2.926-8.035-5.85-16.072-8.777-24.107c-0.465-1.277-0.173-2.314,0.752-2.632
	c1.369-0.471,2.521-0.007,2.98,1.252c4.186,11.445,8.363,22.895,12.542,34.343c3.439,9.421,6.877,18.843,10.313,28.265
	C26.888,245.614,26.928,245.858,27.33,246.077z"/>
<path fill-rule="evenodd" clip-rule="evenodd" fill="#584950" d="M147.466,245.458c-3.223,5.201-7.761,7.829-13.281,8.697
	c-6.663,1.048-12.818-0.086-17.745-5.146c-2.634-2.705-3.879-6.088-4.486-9.754c-0.296-1.786-0.239-3.579-0.239-5.374
	c-0.001-10.036-0.002-20.072,0.001-30.109c0.001-1.726,0.459-2.173,2.115-2.121c1.349,0.041,1.818,0.521,1.818,1.944
	c0.006,11.115-0.095,22.232,0.04,33.348c0.082,6.776,4.222,12.522,11.623,13.456c4.116,0.519,8.076,0.224,11.668-2.012
	c4.423-2.753,6.887-6.877,8.003-11.892c0.438-1.965,0.497-3.949,0.493-5.95c-0.016-8.957-0.008-17.913-0.001-26.87
	c0.001-1.528,0.501-2.014,2.006-2.024c1.39-0.011,1.9,0.454,1.901,1.846c0.007,15.995,0.008,31.989,0,47.983
	c0,1.373-0.493,1.855-1.763,1.869c-1.307,0.013-2.118-0.71-2.146-2.024C147.438,249.493,147.466,247.66,147.466,245.458z"/>
<path fill-rule="evenodd" clip-rule="evenodd" fill="#584950" d="M319.313,228.924c0.005-7.315,0.002-14.631,0-21.947
	c0-1.623-0.005-1.623-1.673-1.626c-0.56-0.001-1.12,0.016-1.679-0.007c-1.23-0.05-1.992-0.874-1.949-2.085
	c0.04-1.121,0.825-1.838,2.044-1.853c0.68-0.009,1.362-0.043,2.038,0.009c0.96,0.074,1.243-0.353,1.233-1.268
	c-0.036-3.317,0.05-6.638-0.037-9.953c-0.052-1.991,1.137-3.445,1.875-5.1c0.221-0.493,0.692-0.302,1.066-0.238
	c0.492,0.084,0.932,0.295,0.989,0.878c0.035,0.356,0.031,0.719,0.031,1.078c0.001,4.237-0.001,8.475,0,12.712
	c0.001,1.854,0.004,1.853,1.802,1.856c0.6,0,1.202-0.028,1.799,0.017c1.011,0.075,1.666,0.875,1.666,1.969
	c0,1.093-0.658,1.881-1.669,1.97c-0.356,0.032-0.719,0.01-1.078,0.015c-2.892,0.04-2.496-0.38-2.514,2.577
	c-0.021,3.397-0.005,6.796-0.005,10.193c0,10.954,0.002,21.907-0.002,32.861c0,1.464-0.643,2.29-1.799,2.361
	c-1.391,0.085-2.166-0.757-2.164-2.354C319.298,243.635,319.31,236.279,319.313,228.924z"/>
<path fill-rule="evenodd" clip-rule="evenodd" fill="#584950" d="M210.386,217.417c0-11.114,0.002-22.229-0.003-33.343
	c-0.001-0.858,0.016-1.66,0.846-2.227c1.257-0.857,2.895-0.151,3.046,1.36c0.028,0.277,0.014,0.56,0.014,0.839
	c0.003,22.27,0.005,44.538,0.005,66.807c0,1.449-0.542,2.303-1.552,2.475c-1.373,0.235-2.402-0.636-2.406-2.089
	c-0.009-2.958,0.018-5.917,0.019-8.875c0.003-8.315,0.001-16.632,0.001-24.947C210.365,217.417,210.376,217.417,210.386,217.417z"/>
<path fill-rule="evenodd" clip-rule="evenodd" fill="#7A214D" d="M134.838,282.336c0,3.8,0.001,7.6-0.003,11.398
	c0,0.399,0.004,0.806-0.071,1.193c-0.087,0.455-0.335,0.826-0.861,0.86c-0.547,0.036-0.748-0.315-0.893-0.783
	c-0.182-0.589-0.167-1.185-0.167-1.782c-0.003-7.479-0.002-14.958-0.004-22.437c0-1.585-0.004-1.621-1.59-1.58
	c-1.352,0.034-2.714-0.192-4.056,0.168c-0.799,0.215-1.394,0.588-1.453,1.51c-0.04,0.615-0.323,0.988-1.003,0.858
	c-0.697-0.133-0.867-0.587-0.769-1.24c0.282-1.877,1.4-2.978,3.839-3.046c4.916-0.138,9.837-0.074,14.756-0.027
	c0.734,0.007,1.419,0.479,2.247,0.253c0.446-0.121,0.775,0.341,0.81,0.846c0.027,0.398,0.026,0.799,0.026,1.199
	c0.007,6.479-0.006,12.958,0.024,19.437c0.017,3.563,2.071,5.571,5.616,5.567c0.716-0.001,1.456,0.035,2.145-0.12
	c2.53-0.574,4.024-2.431,4.085-5.074c0.053-2.358,0.03-4.719,0.032-7.079c0.004-4.239-0.012-8.479,0.013-12.718
	c0.004-0.819-0.299-2.061,1.004-2.024c1.242,0.034,0.963,1.271,0.961,2.085c-0.007,2.876-0.003,5.749-0.14,8.627
	c-0.166,3.502-0.098,7.02-0.027,10.528c0.119,5.974-4.23,7.959-8.91,7.529c-2.262-0.208-4.263-1.015-5.545-3.082
	c-0.697-1.124-1.008-2.357-1.042-3.64c-0.165-6.032-0.282-12.066-0.211-18.103c0.003-0.24-0.002-0.48,0.008-0.72
	c0.076-1.749,0.077-1.748-1.742-1.746c-1.8,0.002-3.6-0.001-5.399,0.001c-1.671,0.002-1.674,0.004-1.675,1.623
	C134.837,274.657,134.839,278.497,134.838,282.336z"/>
<path fill-rule="evenodd" clip-rule="evenodd" fill="#584950" d="M60.834,227.243c0-7.917-0.002-15.835,0.003-23.752
	c0.001-1.691,0.485-2.146,2.154-2.081c1.364,0.053,1.781,0.531,1.781,2.103c0.003,11.316,0.001,22.632,0.001,33.948
	c0,4.519,0.004,9.037-0.002,13.555c-0.003,1.783-1.498,2.7-3.121,1.921c-0.714-0.343-0.855-0.967-0.85-1.702
	c0.026-3.318,0.029-6.638,0.033-9.956C60.837,236.6,60.834,231.922,60.834,227.243z"/>
<path fill-rule="evenodd" clip-rule="evenodd" fill="#7A214D" d="M220.26,296.588c-3.236-0.24-6.517-0.693-8.979-3.327
	c-1.65-1.766-2.508-3.868-2.393-6.318c0.021-0.467-0.068-1.015,0.655-1.054c0.647-0.035,0.964,0.359,1.074,0.911
	c0.109,0.544,0.064,1.121,0.188,1.661c0.529,2.31,1.762,4.125,3.972,5.101c3.524,1.556,7.104,1.797,10.63,0.022
	c2.049-1.031,2.723-2.86,2.705-5.08c-0.016-2.063-0.891-3.474-2.713-4.415c-2.06-1.063-4.32-1.387-6.52-1.952
	c-2.349-0.604-4.718-1.072-6.828-2.456c-3.313-2.172-3.295-8.365,0.123-10.723c3.205-2.211,6.764-2.451,10.441-1.66
	c4.114,0.886,6.273,3.321,6.77,7.479c0.023,0.197,0.028,0.401,0.009,0.599c-0.063,0.624-0.47,0.907-1.048,0.945
	c-0.699,0.045-0.705-0.466-0.747-0.969c-0.278-3.356-1.837-5.378-4.884-6.194c-2.649-0.709-5.309-0.667-7.859,0.41
	c-1.961,0.828-3.273,2.231-3.438,4.497c-0.175,2.414,1.028,3.921,3.109,4.882c2.125,0.98,4.451,1.242,6.677,1.862
	c1.345,0.374,2.721,0.666,4.028,1.142c3.074,1.117,4.522,3.185,4.694,5.998c0.255,4.186-1.86,6.557-4.521,7.67
	C223.801,296.292,222.104,296.51,220.26,296.588z"/>
<path fill-rule="evenodd" clip-rule="evenodd" fill="#7A214D" d="M194.354,266.896c7.69,0.002,12.689,4.284,13.926,10.619
	c0.86,4.411,0.498,8.645-1.628,12.651c-3.511,6.614-12.843,8.477-18.698,3.784c-3.463-2.775-4.854-6.552-5.194-10.771
	c-0.263-3.256,0.201-6.454,1.724-9.415C186.846,269.168,190.684,266.98,194.354,266.896z M184.526,281.738
	c-0.016,2.727,0.517,5.32,1.882,7.699c2.154,3.757,5.441,5.459,9.74,5.3c3.943-0.146,6.948-1.845,8.863-5.343
	c1.687-3.079,2.131-6.361,1.731-9.831c-0.587-5.105-3.608-10.042-9.514-10.755c-4.058-0.489-7.597,0.665-10.103,4.129
	C185.229,275.562,184.54,278.553,184.526,281.738z"/>
<path fill-rule="evenodd" clip-rule="evenodd" fill="#7A214D" d="M115.425,296.573c-3.305-0.233-6.545-0.686-8.982-3.272
	c-1.686-1.789-2.578-3.917-2.435-6.418c0.024-0.429-0.048-0.928,0.594-0.988c0.625-0.06,1.012,0.264,1.125,0.836
	c0.101,0.505,0.027,1.046,0.133,1.549c0.402,1.903,1.26,3.586,2.936,4.636c3.433,2.151,7.141,2.459,10.901,1.067
	c2.728-1.011,3.595-2.689,3.511-5.975c-0.052-2.028-1.34-3.573-3.758-4.446c-2.936-1.061-6.055-1.43-9.026-2.358
	c-0.802-0.25-1.59-0.523-2.33-0.93c-2.574-1.411-3.594-3.643-3.357-6.485c0.22-2.646,1.565-4.627,3.981-5.682
	c3.843-1.677,7.773-1.71,11.585,0.089c2.861,1.351,3.888,3.968,4.216,6.928c0.08,0.724-0.333,1.142-1.041,1.191
	c-0.793,0.057-0.724-0.552-0.757-1.072c-0.224-3.558-2.457-5.808-6.021-6.331c-1.981-0.291-3.896-0.225-5.8,0.306
	c-2.454,0.684-4.603,2.633-4.379,5.643c0.129,1.753,1.027,2.894,2.438,3.725c1.642,0.967,3.507,1.295,5.323,1.754
	c1.702,0.431,3.408,0.844,5.111,1.265c6.644,1.641,6.792,8.535,4.049,11.896c-0.981,1.202-2.266,2.014-3.767,2.426
	C118.291,296.305,116.887,296.61,115.425,296.573z"/>
<path fill-rule="evenodd" clip-rule="evenodd" fill="#7A214D" d="M161.605,284.44c0.203-4.321-0.273-9.705-0.198-15.096
	c0.024-1.763,0.191-1.922,1.909-1.961c1.799-0.04,3.602-0.021,5.36,0.348c3.952,0.83,6.685,3.187,7.969,7.002
	c1.85,5.49,1.893,10.9-1.38,15.962c-1.85,2.861-4.654,4.256-7.912,4.894c-1.463,0.286-2.938,0.218-4.412,0.255
	c-0.982,0.026-1.355-0.389-1.346-1.354C161.624,291.497,161.605,288.504,161.605,284.44z M163.404,281.679
	c0,3.715,0.01,7.431-0.008,11.146c-0.003,0.741,0.126,1.166,1.033,1.208c5.403,0.246,9.633-2.791,11.046-8.012
	c0.854-3.156,0.761-6.331-0.063-9.456c-0.692-2.627-2.063-4.829-4.6-6.136c-1.923-0.989-3.977-1.032-6.066-1.05
	c-1.063-0.009-1.376,0.356-1.362,1.392C163.435,274.407,163.404,278.043,163.404,281.679z"/>
<path fill-rule="evenodd" clip-rule="evenodd" fill="#7A214D" d="M179.604,281.598c0-4.077-0.001-8.154,0.001-12.232
	c0-0.359-0.007-0.721,0.028-1.078c0.041-0.426,0.218-0.788,0.703-0.834c0.514-0.049,0.858,0.241,0.977,0.705
	c0.097,0.379,0.088,0.791,0.088,1.189c0.004,8.154,0.007,16.31-0.005,24.465c-0.001,0.802,0.207,1.951-1,1.923
	c-1.226-0.029-0.765-1.205-0.772-1.905C179.582,289.753,179.604,285.676,179.604,281.598z"/>
<path fill-rule="evenodd" clip-rule="evenodd" fill="#DB89B1" d="M160.432,131.634c0-0.998,0.02-1.996-0.007-2.994
	c-0.021-0.795,0.293-1.165,1.122-1.17c0.834-0.005,1.666-0.132,2.5-0.183c0.743-0.045,1.253,0.211,1.25,1.063
	c-0.009,1.996,0.071,3.996-0.044,5.985c-0.124,2.154-1.745,3.141-3.546,2.274c-0.767-0.369-1.277-0.938-1.265-1.862
	c0.015-1.038,0.004-2.076,0.004-3.114C160.441,131.634,160.437,131.634,160.432,131.634z"/>
<path fill-rule="evenodd" clip-rule="evenodd" fill="#584950" d="M62.692,186.842c-1.948-0.02-3.535-1.576-3.554-3.486
	c-0.019-1.881,1.719-3.563,3.661-3.545c1.882,0.019,3.522,1.678,3.506,3.545C66.286,185.405,64.776,186.862,62.692,186.842z"/>
<path fill-rule="evenodd" clip-rule="evenodd" fill="#DB89B1" d="M76.855,37.306c-1.604-0.024-2.768-0.955-2.768-2.213
	c0-1.42,1.375-2.838,2.728-2.811c1.064,0.021,2.667,1.542,2.678,2.542C79.508,36.222,78.333,37.328,76.855,37.306z"/>
<path fill-rule="evenodd" clip-rule="evenodd" fill="#7A214D" d="M95.042,278.165c1.523-0.001,2.533,0.823,2.574,2.101
	c0.047,1.478-1.406,3.121-2.762,3.125c-1.163,0.003-2.476-1.243-2.474-2.349C92.382,279.288,93.419,278.167,95.042,278.165z"/>
<path fill-rule="evenodd" clip-rule="evenodd" fill="#7A214D" d="M238.684,280.67c-0.003,1.324-1.291,2.616-2.616,2.623
	c-1.268,0.007-2.425-1.078-2.445-2.294c-0.029-1.745,1.054-2.948,2.619-2.908C237.601,278.125,238.687,279.272,238.684,280.67z"/>
<path fill-rule="evenodd" clip-rule="evenodd" fill="#DB89B1" d="M163.076,149.761c1.191,0.014,2.198,1.03,2.197,2.217
	c-0.001,1.292-1.283,2.676-2.438,2.628c-1.461-0.06-2.417-1.039-2.378-2.435C160.502,150.596,161.432,149.74,163.076,149.761z"/>
<path fill-rule="evenodd" clip-rule="evenodd" fill="#DB89B1" d="M165.688,176.745c0.027,1.17-1.163,2.372-2.383,2.404
	c-1.251,0.034-2.327-0.977-2.356-2.213c-0.031-1.344,1.044-2.512,2.34-2.54C164.553,174.369,165.657,175.449,165.688,176.745z"/>
<path fill-rule="evenodd" clip-rule="evenodd" fill="#DB89B1" d="M165.587,164.206c-0.01,1.156-1.26,2.252-2.513,2.203
	c-1.075-0.043-2.134-1.132-2.131-2.191c0.004-1.386,1.056-2.569,2.291-2.576C164.667,161.632,165.6,162.649,165.587,164.206z"/>
<path fill-rule="evenodd" clip-rule="evenodd" fill="#DB89B1" d="M251.188,34.626c0.03,1.043-1.074,2.326-2.093,2.221
	c-1.487-0.155-2.361-0.493-2.465-1.897c-0.093-1.265,0.99-2.618,2.079-2.678C249.765,32.213,251.155,33.535,251.188,34.626z"/>
<path fill-rule="evenodd" clip-rule="evenodd" fill="#DB89B1" d="M138.429,92.608c0,3.718-0.027,7.437,0.016,11.154
	c0.013,1.067-0.312,1.529-1.439,1.476c-7.263-0.341-14.535-0.349-21.802-0.541c-2.307-0.062-4.615-0.404-6.904-0.745
	c-4.041-0.602-7.128-2.865-9.758-5.853c-2.604-2.959-4.478-6.362-5.502-10.133c-1.092-4.02-1.502-8.16-1.1-12.342
	c0.034-0.357,0.099-0.716,0.092-1.073c-0.085-4.552,0.236-9.11-0.189-13.658c-0.096-1.022,0.286-1.579,1.415-1.564
	c6.355,0.082,12.706-0.446,19.059-0.192c3.421,0.136,6.858,0.195,10.221,1.08c2.534,0.667,4.804,1.837,6.768,3.476
	c4.334,3.616,7.091,8.256,8.43,13.751c0.535,2.192,0.751,4.396,0.707,6.649C138.387,86.931,138.43,89.77,138.429,92.608z
	 M121.981,99.909c3.333,0,5.971,0.017,8.61-0.006c1.656-0.014,2.238-0.595,2.23-2.266c-0.007-1.437-0.147-2.873-0.159-4.309
	c-0.036-4.398-0.052-8.797-0.05-13.195c0.003-6.096-4.696-12.132-10.192-14.123c-2.914-1.055-5.965-1.014-8.998-1.097
	c-4.837-0.133-9.669,0.167-14.505,0.206c-0.899,0.007-1.325,0.336-1.306,1.271c0.123,6.225-0.177,12.443,0.652,18.669
	c1.074,8.06,6.96,13.514,14.592,14.603C116.125,100.128,119.403,99.77,121.981,99.909z"/>
<path fill-rule="evenodd" clip-rule="evenodd" fill="#DB89B1" d="M200.234,104.494c-3.718,0-7.437,0.007-11.154-0.003
	c-1.724-0.004-1.941-0.215-1.946-1.936c-0.02-6.836-0.106-13.674-0.011-20.509c0.1-7.184,3.229-12.925,8.611-17.608
	c3.494-3.04,7.682-4.093,12.047-4.848c2.963-0.513,5.964-0.579,8.947-0.681c5.11-0.175,10.226-0.005,15.338,0.172
	c1.117,0.039,1.622,0.517,1.622,1.593c0,7.156,0.171,14.318-0.061,21.468c-0.171,5.285-1.723,10.278-5.256,14.374
	c-2.692,3.12-5.617,6.038-9.731,7.324c-0.77,0.241-1.544,0.385-2.349,0.431C210.942,104.575,205.588,104.5,200.234,104.494z
	 M201.383,100.154c2.049-0.095,3.724-0.153,5.396-0.252c3.751-0.225,7.458-0.652,11.037-1.932c5.254-1.878,8.361-5.615,9.438-10.979
	c0.796-3.959,1.068-8.013,0.797-12.042c-0.188-2.795-0.034-5.589-0.252-8.38c-0.136-1.742-0.148-1.882-1.901-1.886
	c-4.717-0.009-9.434,0.036-14.148-0.019c-5.111-0.059-9.711,1.292-13.588,4.72c-1.967,1.739-3.774,3.628-4.198,6.369
	c-0.514,3.312-0.993,6.635-1.049,9.992c-0.07,4.272-0.143,8.542-0.471,12.804c-0.067,0.882,0.205,1.368,1.176,1.363
	C196.334,99.9,199.051,99.852,201.383,100.154z"/>
<path fill-rule="evenodd" clip-rule="evenodd" fill="#DB89B1" d="M115.093,151.358c-0.267-2.237-0.174-4.476,0.26-6.668
	c0.897-4.536,5.516-8.204,10.157-8.341c2.986-0.089,5.966-0.404,8.948-0.619c0.199-0.015,0.397-0.046,0.596-0.054
	c3.103-0.126,3.487,0.253,3.389,3.195c-0.101,3.023,0.423,6.047-0.013,9.078c-0.531,3.689-1.597,7.074-4.773,9.428
	c-1.071,0.794-2.291,1.14-3.547,1.34c-4.611,0.735-9.275,0.987-13.917,1.435c-0.781,0.076-1.104-0.259-1.102-1.018
	C115.097,156.542,115.093,153.95,115.093,151.358z M132.653,147.806c0.421-3.77-3.357-6.526-5.975-6.399
	c-3.18,0.154-6.546,3.456-6.544,6.646c0.002,3.175,3.25,6.083,6.785,6.076C130.216,154.122,132.662,151.425,132.653,147.806z"/>
<path fill-rule="evenodd" clip-rule="evenodd" fill="#DB89B1" d="M210.656,150.957c-0.1,2.712-0.329,5.422-0.248,8.141
	c0.028,0.94-0.477,1.142-1.302,1.062c-4.406-0.427-8.82-0.747-13.206-1.396c-3.848-0.568-6.219-2.734-7.618-6.256
	c-1.277-3.216-1.254-6.556-1.207-9.917c0.024-1.678-0.004-3.357,0.02-5.035c0.02-1.363,0.541-1.945,1.896-1.882
	c3.188,0.149,6.369,0.403,9.555,0.584c1.999,0.114,3.968,0.285,5.839,1.121c3.43,1.534,5.408,4.082,5.819,7.854
	C210.41,147.138,210.766,149.027,210.656,150.957z M192.86,147.838c0.003,3.521,2.56,6.277,5.834,6.289
	c3.624,0.012,6.875-2.897,6.861-6.14c-0.013-3.045-3.479-6.535-6.508-6.551C195.637,141.417,192.857,144.293,192.86,147.838z"/>
<path fill-rule="evenodd" clip-rule="evenodd" fill="#DB89B1" d="M109.716,67.738c4.046,0.007,7.484,0.276,10.805,1.519
	c3.852,1.441,6.318,4.133,7.775,7.934c1.45,3.782,1.287,7.696,1.113,11.6c-0.087,1.966-0.051,3.912,0.102,5.862
	c0.069,0.881-0.279,1.26-1.16,1.221c-3.799-0.164-7.586,0.364-11.382,0.22c-2.756-0.104-5.479-0.372-8.083-1.466
	c-4.308-1.812-7.171-5.976-7.238-10.668c-0.029-2.035-0.203-4.068-0.211-6.103c-0.012-2.875,0.331-5.743,0.212-8.621
	c-0.035-0.846,0.33-1.286,1.201-1.243C105.33,68.112,107.789,67.577,109.716,67.738z M123.773,82.351
	c0.471-4.521-4.753-8.839-8.145-8.819c-4.435,0.027-9.068,4.296-9.126,8.561c-0.059,4.319,4.167,8.685,8.438,8.689
	C119.89,90.788,123.949,87.117,123.773,82.351z"/>
<path fill-rule="evenodd" clip-rule="evenodd" fill="#DB89B1" d="M205.235,95.869c-2.518-0.001-5.037-0.034-7.555,0.015
	c-1.051,0.02-1.497-0.285-1.5-1.424c-0.01-3.435-0.196-6.869-0.182-10.303c0.016-3.659,0.736-7.17,3.025-10.152
	c2.578-3.359,6.147-4.918,10.252-5.549c4.531-0.696,9.08-0.459,13.628-0.464c0.784-0.001,1.192,0.361,1.18,1.163
	c-0.081,5.551,0.365,11.12-0.308,16.646c-0.312,2.559-1.761,4.7-3.606,6.484c-2.579,2.494-5.597,3.882-9.3,3.608
	C209.002,95.756,207.114,95.87,205.235,95.869z M210.738,90.794c4.104,0.375,8.394-4.604,8.306-8.586
	c-0.101-4.542-4.286-8.663-8.999-8.656c-4.064,0.006-8.251,4.367-8.267,8.611C201.76,87.024,205.659,90.78,210.738,90.794z"/>
<path fill-rule="evenodd" clip-rule="evenodd" fill="#DB89B1" d="M126.336,145.274c1.835,0.044,3.399,1.803,2.92,3.283
	c-0.386,1.193-1.563,1.807-2.755,1.428c-0.703-0.223-1.273-0.646-1.763-1.19c-0.559-0.622-0.977-1.286-0.624-2.157
	C124.432,145.854,125.441,145.252,126.336,145.274z"/>
<path fill-rule="evenodd" clip-rule="evenodd" fill="#DB89B1" d="M201.698,148.371c-0.018,1.112-1.378,2.058-2.809,1.897
	c-0.995-0.112-2.057-0.359-2.53-1.355c-0.479-1.005,0.135-1.8,0.79-2.566c1.771-2.07,2.426-2.034,3.839,0.321
	C201.316,147.213,201.644,147.767,201.698,148.371z"/>
<path fill-rule="evenodd" clip-rule="evenodd" fill="#DB89B1" d="M119.944,82.287c0,3.049-1.573,4.696-4.485,4.696
	c-3.088,0-4.945-1.795-4.926-4.762c0.019-2.895,1.817-4.642,4.775-4.641C118.291,77.583,119.944,79.261,119.944,82.287z"/>
<path fill-rule="evenodd" clip-rule="evenodd" fill="#DB89B1" d="M210.291,86.983c-3.208,0.13-4.664-2.025-4.63-4.754
	c0.036-2.92,1.271-4.657,4.682-4.645c2.974,0.01,4.896,1.837,4.782,4.783C215.022,85.012,213.413,87.146,210.291,86.983z"/>
</svg>
